TRUETOWN_BLOCK_NAME,TRUETOWN_BLOCK_ID
True Town BMA 1 - มหาวิทยาลัยธุรกิจบัณฑิต,13875-100550
True Town BMA 1 - มหาวิทยาลัยธุรกิจบัณฑิต,13870-100555
True Town BMA 1 - มหาวิทยาลัยธุรกิจบัณฑิต,13875-100555
True Town BMA 10 - ตลาดสุขสวัสดิ์ดี,13680-100425
True Town BMA 10 - ตลาดสุขสวัสดิ์ดี,13680-100420
True Town BMA 10 - ตลาดสุขสวัสดิ์ดี,13675-100420
True Town BMA 10 - ตลาดสุขสวัสดิ์ดี,13675-100425
True Town BMA 11 - หมู่บ้านเศรษฐกิจ,13735-100360
True Town BMA 11 - หมู่บ้านเศรษฐกิจ,13735-100365
True Town BMA 12 - มหาวิทยาลัยสยาม,13715-100430
True Town BMA 12 - มหาวิทยาลัยสยาม,13715-100435
True Town BMA 12 - มหาวิทยาลัยสยาม,13720-100450
True Town BMA 13 - ศิริราช วังหลัง,13725-100475
True Town BMA 13 - ศิริราช วังหลัง,13760-100485
True Town BMA 13 - ศิริราช วังหลัง,13760-100480
True Town BMA 13 - ศิริราช วังหลัง,13755-100485
True Town BMA 14 - ฟิวเจอร์พาร์ค-ตลาดรังสิต,13990-100610
True Town BMA 14 - ฟิวเจอร์พาร์ค-ตลาดรังสิต,13990-100615
True Town BMA 14 - ฟิวเจอร์พาร์ค-ตลาดรังสิต,13985-100610
True Town BMA 14 - ฟิวเจอร์พาร์ค-ตลาดรังสิต,13985-100615
True Town BMA 15 - สถาบันเทคโนโลยีเจ้าคุณทหารลาดกระบัง,13730-100765
True Town BMA 15 - สถาบันเทคโนโลยีเจ้าคุณทหารลาดกระบัง,13730-100770
True Town BMA 15 - สถาบันเทคโนโลยีเจ้าคุณทหารลาดกระบัง,13730-100775
True Town BMA 16 - มหาวิทยาลัยกรุงเทพ,14040-100610
True Town BMA 17 - มหาวิทยาลัยรังสิต,13965-100595
True Town BMA 17 - มหาวิทยาลัยรังสิต,13965-100585
True Town BMA 17 - มหาวิทยาลัยรังสิต,13965-100590
True Town BMA 17 - มหาวิทยาลัยรังสิต,13970-100580
True Town BMA 17 - มหาวิทยาลัยรังสิต,13965-100575
True Town BMA 17 - มหาวิทยาลัยรังสิต,13965-100580
True Town BMA 18 - ตลาดลาดสวาย,13965-100680
True Town BMA 19 - Mahanakorn,13845-100855
True Town BMA 19 - Mahanakorn,13850-100855
True Town BMA 19 - Mahanakorn,13850-100860
True Town BMA 19 - Mahanakorn,13840-100855
True Town BMA 2 - มหาวิทยาลัยเกษตรศาสตร์ & ตลาดอมรพันธ์,13850-100570
True Town BMA 2 - มหาวิทยาลัยเกษตรศาสตร์ & ตลาดอมรพันธ์,13850-100565
True Town BMA 2 - มหาวิทยาลัยเกษตรศาสตร์ & ตลาดอมรพันธ์,13845-100570
True Town BMA 2 - มหาวิทยาลัยเกษตรศาสตร์ & ตลาดอมรพันธ์,13845-100565
True Town BMA 20 - บ้านเอื้ออาทรบึงกุ่ม,13795-100665
True Town BMA 21 - ตลาดมีนบุรี,13815-100725
True Town BMA 21 - ตลาดมีนบุรี,13820-100720
True Town BMA 21 - ตลาดมีนบุรี,13815-100720
True Town BMA 21 - ตลาดมีนบุรี,13820-100725
True Town BMA 22 - ซอยหลังวัดหนามแดง,13615-100685
True Town BMA 22 - ซอยหลังวัดหนามแดง,13620-100685
True Town BMA 23 - ม. ABAC วิทยาเขตสุวรรณภูมิ,13600-100830
True Town BMA 23 - ม. ABAC วิทยาเขตสุวรรณภูมิ,13595-100830
True Town BMA 23 - ม. ABAC วิทยาเขตสุวรรณภูมิ,13595-100825
True Town BMA 24 - ย่านนิคมบางพลี,13565-100790
True Town BMA 24 - ย่านนิคมบางพลี,13570-100790
True Town BMA 24 - ย่านนิคมบางพลี,13575-100785
True Town BMA 25 - ซอยมังกร,13595-100660
True Town BMA 25 - ซอยมังกร,13590-100655
True Town BMA 25 - ซอยมังกร,13595-100655
True Town BMA 26 - ย่านเดอะมอลล์บางกะปิ,13770-100640
True Town BMA 26 - ย่านเดอะมอลล์บางกะปิ,13775-100645
True Town BMA 26 - ย่านเดอะมอลล์บางกะปิ,13770-100645
True Town BMA 26 - ย่านเดอะมอลล์บางกะปิ,13775-100650
True Town BMA 27 - กรมสรรพาวุธทหารเรือ,13675-100590
True Town BMA 27 - กรมสรรพาวุธทหารเรือ,13680-100585
True Town BMA 28 - ม.รามคำแหง (วิทยาเขตบางนา ราม2),13670-100675
True Town BMA 28 - ม.รามคำแหง (วิทยาเขตบางนา ราม2),13670-100680
True Town BMA 28 - ม.รามคำแหง (วิทยาเขตบางนา ราม2),13675-100680
True Town BMA 28 - ม.รามคำแหง (วิทยาเขตบางนา ราม2),13675-100675
True Town BMA 29 - ซอยวัดด่านสำโรง,13650-100595
True Town BMA 29 - ซอยวัดด่านสำโรง,13660-100605
True Town BMA 29 - ซอยวัดด่านสำโรง,13645-100625
True Town BMA 29 - ซอยวัดด่านสำโรง,13640-100625
True Town BMA 29 - ซอยวัดด่านสำโรง,13640-100620
True Town BMA 29 - ซอยวัดด่านสำโรง,13650-100610
True Town BMA 29 - ซอยวัดด่านสำโรง,13645-100610
True Town BMA 29 - ซอยวัดด่านสำโรง,13655-100605
True Town BMA 29 - ซอยวัดด่านสำโรง,13650-100600
True Town BMA 29 - ซอยวัดด่านสำโรง,13635-100625
True Town BMA 29 - ซอยวัดด่านสำโรง,13640-100615
True Town BMA 29 - ซอยวัดด่านสำโรง,13655-100600
True Town BMA 3 - ตลาด Ozone One,13930-100575
True Town BMA 30 - ซอยวัดใหญ่,13585-100520
True Town BMA 30 - ซอยวัดใหญ่,13590-100515
True Town BMA 30 - ซอยวัดใหญ่,13585-100555
True Town BMA 31 - ศรีย่าน,13795-100515
True Town BMA 31 - ศรีย่าน,13790-100515
True Town BMA 31 - ศรีย่าน,13795-100520
True Town BMA 32 - ถนนพระราม 4 ใกล้ Bic C,13725-100565
True Town BMA 32 - ถนนพระราม 4 ใกล้ Bic C,13720-100570
True Town BMA 32 - ถนนพระราม 4 ใกล้ Bic C,13720-100565
True Town BMA 33 - สยามแสควร์,13745-100535
True Town BMA 33 - สยามแสควร์,13740-100530
True Town BMA 33 - สยามแสควร์,13745-100530
True Town BMA 34 - เยาวราช สำเพ็ง,13745-100510
True Town BMA 34 - เยาวราช สำเพ็ง,13745-100500
True Town BMA 34 - เยาวราช สำเพ็ง,13745-100505
True Town BMA 34 - เยาวราช สำเพ็ง,13740-100510
True Town BMA 35 - มหาวิทยาลัยหอการค้าไทย,13780-100555
True Town BMA 35 - มหาวิทยาลัยหอการค้าไทย,13780-100560
True Town BMA 35 - มหาวิทยาลัยหอการค้าไทย,13785-100555
True Town BMA 35 - มหาวิทยาลัยหอการค้าไทย,13785-100560
True Town BMA 36 - ย่านอโศก ตลาดรวมทรัพย์,13745-100560
True Town BMA 36 - ย่านอโศก ตลาดรวมทรัพย์,13750-100560
True Town BMA 36 - ย่านอโศก ตลาดรวมทรัพย์,13740-100560
True Town BMA 37 - ถนนสีลม,13725-100525
True Town BMA 37 - ถนนสีลม,13730-100530
True Town BMA 37 - ถนนสีลม,13730-100535
True Town BMA 37 - ถนนสีลม,13730-100525
True Town BMA 38 - Town in Town,13770-100615
True Town BMA 38 - Town in Town,13775-100605
True Town BMA 38 - Town in Town,13775-100610
True Town BMA 38 - Town in Town,13770-100610
True Town BMA 39 - ตลาดเมืองไทยภัทร ทรูทาวเวอร์ ไชน่าทาวน์,13790-100575
True Town BMA 4 - ตลาดนัด BJ,13935-100535
True Town BMA 4 - ตลาดนัด BJ,13935-100540
True Town BMA 40 - ตลาดเสรี ตลาดครูหวี,13680-100545
True Town BMA 40 - ตลาดเสรี ตลาดครูหวี,13695-100495
True Town BMA 40 - ตลาดเสรี ตลาดครูหวี,13695-100490
True Town BMA 5 - ตลาดหมู่บ้านบัวทอง,13885-100410
True Town BMA 5 - ตลาดหมู่บ้านบัวทอง,13900-100395
True Town BMA 5 - ตลาดหมู่บ้านบัวทอง,13895-100400
True Town BMA 5 - ตลาดหมู่บ้านบัวทอง,13885-100415
True Town BMA 5 - ตลาดหมู่บ้านบัวทอง,13900-100400
True Town BMA 5 - ตลาดหมู่บ้านบัวทอง,13905-100395
True Town BMA 6 - ตลาด BB Market,13880-100405
True Town BMA 7 - ม.บางมด และสวนหมาก,13655-100485
True Town BMA 7 - ม.บางมด และสวนหมาก,13655-100490
True Town BMA 7 - ม.บางมด และสวนหมาก,13650-100495
True Town BMA 7 - ม.บางมด และสวนหมาก,13655-100495
True Town BMA 8 - บางขุนเทียน,13665-100430
True Town BMA 8 - บางขุนเทียน,13665-100435
True Town BMA 8 - บางขุนเทียน,13665-100440
True Town BMA 8 - บางขุนเทียน,13670-100435
True Town BMA 9 - ม.ราชภัฏบ้านสมเด็จ,13735-100490
True Town BMA 9 - ม.ราชภัฏบ้านสมเด็จ,13735-100485
True Town BMA 9 - ม.ราชภัฏบ้านสมเด็จ,13720-100470
True Town UPC1 - น่าน,18780-100775
True Town UPC1 - น่าน,18785-100780
True Town UPC1 - น่าน,18775-100765
True Town UPC10 - อุตรดิตถ์,17640-100085
True Town UPC10 - อุตรดิตถ์,17635-100085
True Town UPC10 - อุตรดิตถ์,17630-100085
True Town UPC11 - ตาก,17040-099060
True Town UPC12 - เพชรบูรณ์,16415-101160
True Town UPC13 - สุโขทัย,17020-099715
True Town UPC13 - สุโขทัย,17020-099720
True Town UPC13 - สุโขทัย,17020-099705
True Town UPC13 - สุโขทัย,17020-099710
True Town UPC14 - พิษณุโลก,16755-100195
True Town UPC14 - พิษณุโลก,16750-100200
True Town UPC14 - พิษณุโลก,16800-100260
True Town UPC14 - พิษณุโลก,16755-100190
True Town UPC15 - พิจิตร,16440-100340
True Town UPC15 - พิจิตร,16445-100340
True Town UPC16 - กำแพงเพชร,16475-099525
True Town UPC17 - กาฬสินธุ์,16440-103505
True Town UPC18 - สกลนคร,17160-104150
True Town UPC18 - สกลนคร,17160-104145
True Town UPC18 - สกลนคร,17165-104145
True Town UPC18 - สกลนคร,17165-104150
True Town UPC2 - พะเยา,19170-099895
True Town UPC2 - พะเยา,19165-099900
True Town UPC2 - พะเยา,19175-099895
True Town UPC2 - พะเยา,19165-099895
True Town UPC20 - ขอนแก่น,16430-102830
True Town UPC21 - เลย,17895-101645
True Town UPC21 - เลย,17895-101655
True Town UPC21 - เลย,17895-101650
True Town UPC21 - เลย,17900-101655
True Town UPC22 - อุดรธานี,17400-102800
True Town UPC22 - อุดรธานี,17405-102800
True Town UPC24 - หนองบัวลำภู,17205-102440
True Town UPC25 - นครพนม,17405-104785
True Town UPC25 - นครพนม,17400-104790
True Town UPC26 - บุรีรัมย์,15005-103095
True Town UPC26 - บุรีรัมย์,15005-103100
True Town UPC26 - บุรีรัมย์,15005-103110
True Town UPC26 - บุรีรัมย์,15005-103105
True Town UPC27 - สุรินทร์,14895-103490
True Town UPC28 - ชัยภูมิ,15815-102020
True Town UPC28 - ชัยภูมิ,15810-102020
True Town UPC29 - นครราชสีมา 1,14960-102040
True Town UPC3 - ลำพูน,18575-099000
True Town UPC3 - ลำพูน,18580-099000
True Town UPC3 - ลำพูน,18580-099005
True Town UPC3 - ลำพูน,18585-099005
True Town UPC30 - นครราชสีมา 2,15590-102425
True Town UPC31 - จันทบุรี,12610-102115
True Town UPC31 - จันทบุรี,12615-102110
True Town UPC32 - สระแก้ว,13825-102065
True Town UPC33 - ชลบุรี 1,13290-100925
True Town UPC33 - ชลบุรี 1,13295-100925
True Town UPC34 - ปราจีนบุรี,13905-101585
True Town UPC34 - ปราจีนบุรี,13915-101575
True Town UPC34 - ปราจีนบุรี,13905-101575
True Town UPC34 - ปราจีนบุรี,13920-101570
True Town UPC34 - ปราจีนบุรี,13905-101580
True Town UPC34 - ปราจีนบุรี,13900-101580
True Town UPC35 - นครนายก,14205-101210
True Town UPC35 - นครนายก,14200-101215
True Town UPC35 - นครนายก,14205-101215
True Town UPC36 - ชลบุรี 2,12850-100915
True Town UPC36 - ชลบุรี 2,12850-100910
True Town UPC37 - ตราด,12245-102510
True Town UPC38 - ฉะเชิงเทรา,13680-101065
True Town UPC38 - ฉะเชิงเทรา,13690-101075
True Town UPC38 - ฉะเชิงเทรา,13685-101070
True Town UPC38 - ฉะเชิงเทรา,13675-101060
True Town UPC39 - ระยอง,12725-101165
True Town UPC39 - ระยอง,12720-101170
True Town UPC39 - ระยอง,12720-101165
True Town UPC39 - ระยอง,12715-101165
True Town UPC4 - เชียงราย,19970-099855
True Town UPC4 - เชียงราย,19980-099860
True Town UPC4 - เชียงราย,19975-099860
True Town UPC4 - เชียงราย,20050-099875
True Town UPC40 - ลพบุรี,14800-100620
True Town UPC41 - อุทัยธานี,15080-099510
True Town UPC41 - อุทัยธานี,15085-099520
True Town UPC42 - สิงห์บุรี,14855-100385
True Town UPC43 - ชัยนาท,15165-100185
True Town UPC44 - อ่างทอง,14595-100455
True Town UPC45 - สระบุรี,14530-100915
True Town UPC46 - พระนครศรีอยุธยา,14315-100635
True Town UPC47 - นครสวรรค์,15685-100105
True Town UPC48 - ราชบุรี,13535-099820
True Town UPC48 - ราชบุรี,13535-099815
True Town UPC48 - ราชบุรี,13540-099815
True Town UPC49 - สมุทรสาคร,13565-100270
True Town UPC5 - แพร่,18135-100150
True Town UPC5 - แพร่,18125-100140
True Town UPC5 - แพร่,18130-100150
True Town UPC5 - แพร่,18130-100145
True Town UPC50 - กาญจนบุรี,14025-099530
True Town UPC51 - ประจวบคีรีขันธ์,12560-099950
True Town UPC51 - ประจวบคีรีขันธ์,12565-099955
True Town UPC52 - สุพรรณบุรี,14385-099890
True Town UPC52 - สุพรรณบุรี,14380-099890
True Town UPC53 - สมุทรสงคราม,13410-099995
True Town UPC53 - สมุทรสงคราม,13410-100000
True Town UPC54 - เพชรบุรี,13115-099945
True Town UPC54 - เพชรบุรี,13110-099945
True Town UPC55 - นครปฐม,13805-100315
True Town UPC55 - นครปฐม,13800-100325
True Town UPC55 - นครปฐม,13805-100320
True Town UPC55 - นครปฐม,13805-100325
True Town UPC56 - ภูเก็ต,07895-098385
True Town UPC56 - ภูเก็ต,07895-098390
True Town UPC56 - ภูเก็ต,07900-098380
True Town UPC56 - ภูเก็ต,07905-098375
True Town UPC57 - พังงา,08470-098530
True Town UPC57 - พังงา,08450-098520
True Town UPC57 - พังงา,08465-098530
True Town UPC57 - พังงา,08460-098530
True Town UPC58 - สุราษฎร์ธานี,09080-099365
True Town UPC58 - สุราษฎร์ธานี,09080-099360
True Town UPC58 - สุราษฎร์ธานี,09075-099365
True Town UPC59 - ชุมพร,10500-099175
True Town UPC6 - เชียงใหม่ 2,18930-098990
True Town UPC6 - เชียงใหม่ 2,18930-098985
True Town UPC6 - เชียงใหม่ 2,18910-099000
True Town UPC6 - เชียงใหม่ 2,18895-099000
True Town UPC60 - ระนอง,09970-098630
True Town UPC60 - ระนอง,09960-098630
True Town UPC60 - ระนอง,09965-098630
True Town UPC61 - กระบี่,08065-098915
True Town UPC61 - กระบี่,08070-098915
True Town UPC61 - กระบี่,08045-098810
True Town UPC62 - ตรัง,07555-099610
True Town UPC63 - นครศรีธรรมราช,08430-099965
True Town UPC63 - นครศรีธรรมราช,08425-099970
True Town UPC63 - นครศรีธรรมราช,08430-099975
True Town UPC63 - นครศรีธรรมราช,08430-099970
True Town UPC64 - สงขลา,07000-100485
True Town UPC65 - นราธิวาส,06435-101815
True Town UPC66 - สตูล,06625-100060
True Town UPC66 - สตูล,06615-100065
True Town UPC66 - สตูล,06610-100065
True Town UPC66 - สตูล,06615-100070
True Town UPC66 - สตูล,06620-100065
True Town UPC67 - ยะลา,06545-101285
True Town UPC67 - ยะลา,06550-101290
True Town UPC68 - ปัตตานี,06865-101230
True Town UPC69 - พัทลุง,07615-100070
True Town UPC7 - ลำปาง,18295-099495
True Town UPC7 - ลำปาง,18300-099505
True Town UPC70 - อำนาจเจริญ,15860-104625
True Town UPC70 - อำนาจเจริญ,15870-104620
True Town UPC70 - อำนาจเจริญ,15865-104625
True Town UPC70 - อำนาจเจริญ,15865-104620
True Town UPC71 - มหาสารคาม,16240-103260
True Town UPC71 - มหาสารคาม,16240-103265
True Town UPC71 - มหาสารคาม,16240-103255
True Town UPC71 - มหาสารคาม,16245-103255
True Town UPC72 - มุกดาหาร,16545-104710
True Town UPC72 - มุกดาหาร,16535-104730
True Town UPC72 - มุกดาหาร,16545-104725
True Town UPC73 - ร้อยเอ็ด,16060-103655
True Town UPC73 - ร้อยเอ็ด,16065-103655
True Town UPC73 - ร้อยเอ็ด,16060-103650
True Town UPC73 - ร้อยเอ็ด,16065-103650
True Town UPC74 - อุบลราชธานี,15270-104835
True Town UPC74 - อุบลราชธานี,15120-104895
True Town UPC74 - อุบลราชธานี,15270-104840
True Town UPC74 - อุบลราชธานี,15275-104840
True Town UPC75 - ศรีสะเกษ,15115-104350
True Town UPC75 - ศรีสะเกษ,15115-104355
True Town UPC76 - ยโสธร,15790-104145
True Town UPC76 - ยโสธร,15815-104125
True Town UPC76 - ยโสธร,15795-104145
True Town UPC76 - ยโสธร,15810-104135
True Town UPC76 - ยโสธร,15805-104140
True Town UPC76 - ยโสธร,15800-104140
True Town UPC8 - แม่ฮ่องสอน,19360-098435
True Town UPC8 - แม่ฮ่องสอน,19365-098435
True Town UPC9 - เชียงใหม่ 1,18800-098965
True Town UPC9 - เชียงใหม่ 1,18790-098965
True Town UPC9 - เชียงใหม่ 1,18800-098970
True Town UPC9 - เชียงใหม่ 1,18795-098970
