TDS_REGION,TDS_PROVINCE,TRUETOWN_BLOCK_NAME,TRUETOWN_BLOCK_ID,MAU_RETAIL,MAU_7,MAU_KA,MAU_LT,MERCHANT_COUNT,MERCHANT_COUNT_7,MERCHANT_COUNT_KA,MERCHANT_COUNT_LT,MERCHANT_COUNT_WONGNAI,INACTIVE_MERCHANT_COUNT,INACTIVE_MERCHANT_COUNT_7,INACTIVE_MERCHANT_COUNT_KA,INACTIVE_MERCHANT_COUNT_LT,ACTIVE_MERCHANT_COUNT,ACTIVE_MERCHANT_COUNT_7,ACTIVE_MERCHANT_COUNT_KA,ACTIVE_MERCHANT_COUNT_LT,QUALITY_MERCHANT_COUNT,QUALITY_MERCHANT_COUNT_7,QUALITY_MERCHANT_COUNT_KA,QUALITY_MERCHANT_COUNT_LT,UNIVERSITY_COUNT,IN_TRUETOWN_COUNT,HAVE_BLOCK_ID_COUNT,BLOCK_ID_ZONE
,,,06995-100480,1922.0,1040.0,867.0,15.0,73,1,36,36,152,50,0,18,32,23,1,18,4,19,1,17,1,0,0,73,HIGH
,,,07000-100470,1279.0,1277.0,0.0,2.0,12,3,1,8,87,7,0,1,6,5,3,0,2,3,3,0,0,0,0,12,HIGH
,,,07005-100470,1015.0,967.0,0.0,48.0,21,3,2,16,259,16,1,2,13,5,2,0,3,5,2,0,3,1,0,21,HIGH
,,,07005-100475,1058.0,1057.0,0.0,1.0,14,2,1,11,140,11,0,1,10,3,2,0,1,2,2,0,0,0,0,14,HIGH
,,,07005-100480,3338.0,3301.0,0.0,37.0,13,3,1,9,95,9,0,1,8,4,3,0,1,4,3,0,1,0,0,13,HIGH
,,,07005-100495,2632.0,2575.0,0.0,57.0,81,2,1,78,204,69,0,1,68,12,2,0,10,6,2,0,4,0,0,81,HIGH
,,,07005-100500,1836.0,1611.0,0.0,225.0,47,2,2,43,128,25,1,2,22,22,1,0,21,16,1,0,15,0,0,47,HIGH
,,,07010-100470,700.0,689.0,11.0,0.0,15,2,2,11,297,13,1,1,11,2,1,1,0,2,1,1,0,0,0,15,HIGH
,,,07015-100470,2251.0,1630.0,620.0,1.0,59,2,43,14,108,24,0,11,13,35,2,32,1,31,2,29,0,0,0,59,HIGH
,,,07015-100475,1734.0,1650.0,0.0,84.0,39,2,3,34,194,29,0,3,26,10,2,0,8,5,2,0,3,0,0,39,HIGH
,,,07015-100485,1356.0,1255.0,101.0,0.0,16,1,5,10,116,12,0,2,10,4,1,3,0,3,1,2,0,0,0,16,HIGH
,,,07195-100600,634.0,626.0,0.0,8.0,7,1,0,6,105,3,0,0,3,4,1,0,3,2,1,0,1,0,0,7,HIGH
,,,07880-098395,954.0,949.0,3.0,2.0,15,2,3,10,96,11,0,2,9,4,2,1,1,2,2,0,0,0,0,15,HIGH
,,,07890-098390,811.0,795.0,0.0,16.0,14,1,5,8,93,12,0,5,7,2,1,0,1,2,1,0,1,0,0,14,HIGH
,,,07895-098295,739.0,711.0,28.0,0.0,47,5,41,1,268,40,2,37,1,7,3,4,0,5,3,2,0,0,0,47,HIGH
,,,07895-098365,843.0,339.0,503.0,1.0,35,1,25,9,119,24,0,16,8,11,1,9,1,8,1,7,0,0,0,35,HIGH
R08-South Upper,Phuket,True Town UPC56 - ภูเก็ต,07905-098375,1398.0,1207.0,187.0,4.0,21,3,3,15,96,16,0,2,14,5,3,1,1,4,3,1,0,1,21,21,HIGH
R08-South Upper,Krabi,True Town UPC61 - กระบี่,08065-098915,1182.0,1166.0,4.0,12.0,40,3,9,28,131,30,0,7,23,10,3,2,5,4,3,0,1,0,40,40,HIGH
,,,09145-099325,951.0,950.0,0.0,1.0,10,2,2,6,104,7,0,2,5,3,2,0,1,2,2,0,0,3,0,10,HIGH
,,,09150-099325,592.0,582.0,7.0,3.0,18,2,2,14,121,13,0,1,12,5,2,1,2,3,2,1,0,0,0,18,HIGH
,,,12550-099960,911.0,516.0,395.0,0.0,31,1,29,1,94,21,0,20,1,10,1,9,0,10,1,9,0,0,0,31,HIGH
R07-West,Prachuap Khiri khan,True Town UPC51 - ประจวบคีรีขันธ์,12565-099955,1683.0,1683.0,0.0,0.0,16,3,1,12,105,13,0,1,12,3,3,0,0,3,3,0,0,0,16,16,HIGH
,,,12570-099955,1263.0,1238.0,19.0,6.0,41,3,6,32,113,33,0,5,28,8,3,1,4,4,3,1,0,0,0,41,HIGH
,,,12575-099955,2511.0,2438.0,0.0,73.0,68,7,0,61,301,49,1,0,48,19,6,0,13,11,6,0,5,0,0,68,HIGH
,,,12925-100875,3610.0,3574.0,36.0,0.0,26,9,15,2,100,13,0,11,2,13,9,4,0,13,9,4,0,0,0,26,HIGH
,,,12930-100875,705.0,679.0,26.0,0.0,14,2,10,2,93,9,0,7,2,5,2,3,0,4,2,2,0,0,0,14,HIGH
,,,12935-100880,1947.0,1597.0,350.0,0.0,51,3,47,1,178,34,0,33,1,17,3,14,0,15,3,12,0,0,0,51,HIGH
,,,12935-100890,2281.0,2223.0,57.0,1.0,21,6,12,3,89,10,0,8,2,11,6,4,1,9,6,3,0,1,0,21,HIGH
,,,12950-100885,716.0,706.0,10.0,0.0,16,2,14,0,92,11,0,11,0,5,2,3,0,3,2,1,0,0,0,16,HIGH
,,,12955-100885,1256.0,288.0,968.0,0.0,39,1,37,1,145,23,0,22,1,16,1,15,0,14,1,13,0,0,0,39,HIGH
,,,13115-100925,2006.0,1928.0,0.0,78.0,24,2,1,21,93,13,0,1,12,11,2,0,9,8,2,0,6,0,0,24,HIGH
,,,13170-100925,4170.0,3825.0,341.0,4.0,18,2,5,11,155,10,0,2,8,8,2,3,3,5,2,3,0,0,0,18,HIGH
,,,13170-100930,2325.0,2102.0,220.0,3.0,43,3,12,28,145,32,0,5,27,11,3,7,1,8,3,5,0,1,0,43,HIGH
,,,13275-100930,3555.0,3495.0,0.0,60.0,36,3,0,33,121,26,0,0,26,10,3,0,7,8,3,0,5,0,0,36,HIGH
,,,13285-100915,3743.0,3735.0,0.0,8.0,22,4,3,15,96,15,0,3,12,7,4,0,3,5,4,0,1,0,0,22,HIGH
,,,13285-100920,4417.0,4082.0,0.0,335.0,38,4,0,34,93,19,0,0,19,19,4,0,15,17,4,0,13,0,0,38,HIGH
,,,13285-100925,3107.0,2373.0,0.0,734.0,76,2,1,73,132,39,0,1,38,37,2,0,35,27,2,0,25,0,0,76,HIGH
,,,13285-100935,1276.0,1265.0,8.0,3.0,17,2,2,13,100,12,0,1,11,5,2,1,2,3,2,1,0,2,0,17,HIGH
R05-East,Chonburi 1,True Town UPC33 - ชลบุรี 1,13290-100925,3013.0,2867.0,72.0,74.0,62,3,8,51,170,46,0,5,41,16,3,3,10,11,3,3,5,0,62,62,HIGH
,,,13335-100950,999.0,968.0,0.0,31.0,10,1,0,9,101,4,0,0,4,6,1,0,5,3,1,0,2,0,0,10,HIGH
,,,13370-100985,1086.0,1086.0,0.0,0.0,6,2,0,4,89,4,0,0,4,2,2,0,0,2,2,0,0,0,0,6,HIGH
,,,13550-100275,1553.0,1547.0,0.0,6.0,32,4,2,26,96,24,0,2,22,8,4,0,4,4,4,0,0,1,0,32,HIGH
,,,13585-100605,831.0,385.0,422.0,24.0,31,1,11,19,86,16,0,3,13,15,1,8,6,11,1,7,3,1,0,31,HIGH
,,,13595-100595,1548.0,1494.0,6.0,48.0,29,5,2,22,217,19,0,1,18,10,5,1,4,8,5,1,2,1,0,29,HIGH
,,,13600-100745,1055.0,1048.0,0.0,7.0,76,2,1,73,86,70,0,1,69,6,2,0,4,2,2,0,0,0,0,76,HIGH
,,,13605-100705,1334.0,1171.0,146.0,17.0,40,3,8,29,90,26,0,2,24,14,3,6,5,10,3,6,1,1,0,40,HIGH
,,,13635-100710,1234.0,1055.0,72.0,107.0,75,1,9,65,121,54,0,7,47,21,1,2,18,8,1,2,5,0,0,75,HIGH
,,,13645-100495,926.0,769.0,104.0,53.0,31,1,3,27,89,21,0,1,20,10,1,2,7,8,1,2,5,0,0,31,HIGH
,,,13650-100680,1418.0,0.0,1366.0,52.0,50,0,34,16,272,30,0,20,10,20,0,14,6,16,0,14,2,0,0,50,HIGH
BMA II (South West),B074-BKK,True Town BMA 7 - ม.บางมด และสวนหมาก,13655-100485,2839.0,2721.0,0.0,118.0,22,3,0,19,113,10,0,0,10,12,3,0,9,8,3,0,5,0,22,22,HIGH
BMA II (South West),B074-BKK,True Town BMA 7 - ม.บางมด และสวนหมาก,13655-100495,649.0,0.0,89.0,560.0,74,0,3,71,137,44,0,2,42,30,0,1,29,20,0,1,19,0,74,74,HIGH
,,,13655-100520,1446.0,794.0,501.0,151.0,55,1,11,43,114,30,0,2,28,25,1,9,15,24,1,9,14,0,0,55,HIGH
,,,13655-100595,1722.0,1400.0,261.0,61.0,80,3,13,64,174,57,0,6,51,23,3,7,13,15,3,7,5,0,0,80,HIGH
BMA II (South West),B071-BKK,True Town BMA 8 - บางขุนเทียน,13665-100435,3248.0,623.0,1980.0,645.0,93,1,49,43,268,48,0,25,23,45,1,24,20,43,1,23,19,1,93,93,HIGH
BMA II (South West),B071-BKK,True Town BMA 8 - บางขุนเทียน,13665-100440,1921.0,1849.0,41.0,31.0,55,4,7,44,149,40,0,5,35,15,4,2,9,7,4,1,2,0,55,55,HIGH
,,True Town BMA 27 - ซอยลาซาล,13665-100615,1375.0,1108.0,164.0,103.0,40,2,5,33,89,18,0,3,15,22,2,2,18,13,2,1,10,1,40,40,HIGH
,,,13670-100630,2384.0,1629.0,305.0,450.0,27,2,18,7,99,15,0,10,5,12,2,8,2,11,2,8,1,0,0,27,HIGH
,,,13670-100635,1867.0,1484.0,361.0,22.0,34,2,10,22,174,22,0,5,17,12,2,5,5,9,2,5,2,0,0,34,HIGH
,,,13675-100635,955.0,734.0,221.0,0.0,20,2,6,12,98,15,0,3,12,5,2,3,0,5,2,3,0,1,0,20,HIGH
BMA IV (South East),B042-BKK,True Town BMA 28 - ม.รามคำแหง (วิทยาเขตบางนา ราม2),13675-100680,2279.0,1934.0,0.0,345.0,75,5,0,70,105,45,0,0,45,30,5,0,25,23,5,0,18,0,75,75,HIGH
,,,13680-100610,1670.0,1391.0,172.0,107.0,34,3,5,26,134,20,0,3,17,14,3,2,9,11,3,2,6,0,0,34,HIGH
,,,13680-100630,1015.0,727.0,0.0,288.0,77,2,4,71,89,54,0,4,50,23,2,0,21,16,2,0,14,1,0,77,HIGH
,,,13680-100635,1310.0,1277.0,25.0,8.0,27,3,4,20,85,20,0,3,17,7,3,1,3,5,3,1,1,0,0,27,HIGH
,,,13685-100490,2101.0,1515.0,438.0,148.0,22,3,7,12,98,10,0,2,8,12,3,5,4,10,3,5,2,1,0,22,HIGH
,,,13685-100610,4304.0,2398.0,923.0,983.0,53,4,11,38,144,27,0,7,20,26,4,4,18,22,4,4,14,1,0,53,HIGH
,,,13685-100615,916.0,669.0,150.0,97.0,18,2,1,15,85,13,0,0,13,5,2,1,2,5,2,1,2,1,0,18,HIGH
,,,13685-101065,2130.0,2116.0,4.0,10.0,28,3,2,23,90,21,0,1,20,7,3,1,3,4,3,0,1,1,0,28,HIGH
,,,13690-100610,5823.0,4277.0,1178.0,368.0,34,2,8,24,109,19,0,4,15,15,2,4,9,10,2,4,4,0,0,34,HIGH
,,,13690-100645,2584.0,1468.0,1072.0,44.0,56,2,33,21,358,33,0,17,16,23,2,16,5,20,2,15,3,0,0,56,HIGH
,,,13695-100480,918.0,893.0,0.0,25.0,39,2,1,36,122,34,0,1,33,5,2,0,3,4,2,0,2,2,0,39,HIGH
,,,13695-100645,4033.0,2173.0,1674.0,186.0,155,4,63,88,345,103,0,30,73,52,4,33,15,37,4,26,7,0,0,155,HIGH
,,,13700-100535,2737.0,579.0,2158.0,0.0,61,1,53,7,242,30,0,23,7,31,1,30,0,29,1,28,0,0,0,61,HIGH
,,,13700-100605,3407.0,3185.0,52.0,170.0,52,6,6,40,92,25,0,3,22,27,6,3,18,18,6,3,9,1,0,52,HIGH
,,,13705-100500,1009.0,975.0,34.0,0.0,50,3,36,11,136,45,1,33,11,5,2,3,0,4,2,2,0,0,0,50,HIGH
,,,13705-100535,2290.0,1192.0,149.0,949.0,140,3,19,118,86,100,0,16,84,40,3,3,34,22,3,2,17,2,0,140,HIGH
,,,13705-100600,3060.0,2929.0,129.0,2.0,32,5,7,20,168,22,0,3,19,10,5,4,1,8,5,3,0,2,0,32,HIGH
,,,13710-100505,5577.0,1353.0,4200.0,24.0,41,3,31,7,107,11,0,6,5,30,3,25,2,28,3,24,1,0,0,41,HIGH
,,,13710-100520,1843.0,1035.0,670.0,138.0,30,2,3,25,87,15,0,0,15,15,2,3,10,10,2,3,5,0,0,30,HIGH
,,,13710-100525,1627.0,1399.0,0.0,228.0,26,3,2,21,181,12,0,2,10,14,3,0,11,9,3,0,6,1,0,26,HIGH
,,,13710-100540,989.0,987.0,0.0,2.0,6,2,2,2,100,3,0,2,1,3,2,0,1,2,2,0,0,0,0,6,HIGH
,,,13710-100600,1334.0,1130.0,143.0,61.0,33,3,10,20,149,21,0,7,14,12,3,3,6,12,3,3,6,0,0,33,HIGH
,,,13715-100405,2428.0,783.0,1621.0,24.0,46,1,34,11,259,22,0,15,7,24,1,19,4,19,1,17,1,0,0,46,HIGH
BMA II (South West),B082-BKK,True Town BMA 12 - มหาวิทยาลัยสยาม,13715-100430,9386.0,2092.0,7244.0,50.0,125,5,83,37,175,55,0,24,31,70,5,59,6,66,5,58,3,1,125,125,HIGH
,,,13715-100470,618.0,526.0,22.0,70.0,14,1,5,8,86,5,0,3,2,9,1,2,6,6,1,2,3,2,0,14,HIGH
,,,13715-100475,3249.0,1085.0,802.0,1362.0,72,2,18,52,143,37,0,4,33,35,2,14,19,23,2,12,9,0,0,72,HIGH
,,,13715-100485,2753.0,2700.0,29.0,24.0,22,7,2,13,106,10,0,0,10,12,7,2,3,11,7,2,2,1,0,22,HIGH
,,,13715-100510,1842.0,1420.0,406.0,16.0,33,3,10,20,121,21,0,6,15,12,3,4,5,9,3,4,2,0,0,33,HIGH
,,,13715-100515,3152.0,3086.0,0.0,66.0,15,6,1,8,132,4,0,1,3,11,6,0,5,8,6,0,2,3,0,15,HIGH
,,,13715-100525,1295.0,1245.0,0.0,50.0,26,3,1,22,182,15,0,1,14,11,3,0,8,7,3,0,4,2,0,26,HIGH
,,,13715-100580,4019.0,4019.0,0.0,0.0,30,5,17,8,88,25,0,17,8,5,5,0,0,5,5,0,0,2,0,30,HIGH
,,,13715-100590,867.0,851.0,16.0,0.0,13,1,7,5,164,11,0,6,5,2,1,1,0,2,1,1,0,1,0,13,HIGH
,,,13715-100595,3238.0,3231.0,0.0,7.0,29,7,2,20,103,18,0,2,16,11,7,0,4,7,7,0,0,3,0,29,HIGH
,,,13720-100505,912.0,896.0,7.0,9.0,18,2,9,7,128,13,0,8,5,5,2,1,2,4,2,1,1,1,0,18,HIGH
,,,13720-100515,1328.0,1295.0,17.0,16.0,19,2,5,12,106,12,0,4,8,7,2,1,4,4,2,1,1,2,0,19,HIGH
,,,13720-100535,2404.0,2289.0,0.0,115.0,43,4,4,35,127,29,0,4,25,14,4,0,10,11,4,0,7,1,0,43,HIGH
BMA V (Central),B113-BKK,True Town BMA 32 - ถนนพระราม 4 ใกล้ Bic C,13720-100565,708.0,124.0,465.0,119.0,39,1,17,21,187,24,0,7,17,15,1,10,4,14,1,9,4,0,39,39,HIGH
BMA V (Central),B113-BKK,True Town BMA 32 - ถนนพระราม 4 ใกล้ Bic C,13720-100570,3144.0,2173.0,91.0,880.0,98,4,5,89,158,72,0,4,68,26,4,1,21,19,4,1,14,0,98,98,HIGH
BMA II (South West),B073-BKK,True Town BMA 9 - ม.ราชภัฏบ้านสมเด็จ,13725-100475,1650.0,1091.0,0.0,559.0,64,3,1,60,225,20,0,1,19,44,3,0,41,37,3,0,34,1,64,64,HIGH
,,,13725-100490,3185.0,3082.0,59.0,44.0,28,6,5,17,102,15,0,4,11,13,6,1,6,9,6,1,2,1,0,28,HIGH
,,,13725-100495,3386.0,3249.0,0.0,137.0,33,7,8,18,95,21,1,8,12,12,6,0,6,10,6,0,4,0,0,33,HIGH
,,,13725-100505,2830.0,995.0,1833.0,2.0,148,2,142,4,87,104,0,101,3,44,2,41,1,32,2,30,0,0,0,148,HIGH
,,,13725-100510,627.0,534.0,22.0,71.0,60,1,12,47,108,46,0,8,38,14,1,4,9,6,1,1,4,0,0,60,HIGH
,,,13725-100515,2033.0,2013.0,0.0,20.0,35,3,9,23,299,28,0,9,19,7,3,0,4,5,3,0,2,3,0,35,HIGH
,,,13725-100520,4408.0,3858.0,127.0,423.0,59,8,9,42,352,43,1,7,35,16,7,2,7,15,7,2,6,3,0,59,HIGH
BMA V (Central),B091-BKK,True Town BMA 37 - ถนนสีลม,13725-100525,7909.0,6276.0,1287.0,346.0,46,7,29,10,216,19,0,16,3,27,7,13,7,27,7,13,7,2,46,46,HIGH
,,,13725-100530,9898.0,6721.0,333.0,2844.0,146,8,23,115,496,86,0,19,67,60,8,4,48,53,8,4,41,0,0,146,HIGH
,,,13725-100535,4672.0,3054.0,69.0,1549.0,30,4,9,17,134,13,0,7,6,17,4,2,11,15,4,2,9,0,0,30,HIGH
,,,13725-100545,2117.0,2087.0,20.0,10.0,22,5,6,11,152,13,1,4,8,9,4,2,3,6,4,1,1,0,0,22,HIGH
,,,13725-100555,1711.0,1584.0,0.0,127.0,49,2,3,44,86,42,0,3,39,7,2,0,5,7,2,0,5,1,0,49,HIGH
,,,13725-100560,1654.0,1652.0,0.0,2.0,14,3,1,10,84,10,0,1,9,4,3,0,1,3,3,0,0,1,0,14,HIGH
BMA V (Central),B113-BKK,True Town BMA 32 - ถนนพระราม 4 ใกล้ Bic C,13725-100565,2210.0,1878.0,252.0,80.0,36,5,24,7,259,21,0,18,3,15,5,6,4,14,5,6,3,0,36,36,HIGH
,,,13725-100570,2075.0,1679.0,393.0,3.0,77,4,69,4,128,56,1,52,3,21,3,17,1,16,3,13,0,2,0,77,HIGH
,,,13725-100575,3165.0,3152.0,13.0,0.0,11,5,5,1,184,4,0,3,1,7,5,2,0,7,5,2,0,0,0,11,HIGH
,,,13725-100580,2646.0,2405.0,236.0,5.0,27,4,19,4,209,15,0,12,3,12,4,7,1,11,4,6,1,1,0,27,HIGH
,,,13725-100725,1190.0,783.0,314.0,93.0,58,1,17,40,96,44,0,10,34,14,1,7,6,9,1,6,2,0,0,58,HIGH
,,,13725-100775,1511.0,1455.0,0.0,56.0,57,2,2,53,117,45,0,2,43,12,2,0,10,5,2,0,3,0,0,57,HIGH
,,,13725-100780,3444.0,3370.0,0.0,74.0,60,3,0,57,101,43,0,0,43,17,3,0,14,11,3,0,8,0,0,60,HIGH
,,,13730-100505,4129.0,3764.0,315.0,50.0,68,3,56,9,124,49,0,44,5,19,3,12,4,17,3,12,2,2,0,68,HIGH
,,,13730-100510,1525.0,642.0,877.0,6.0,32,2,23,7,160,19,0,14,5,13,2,9,2,10,2,8,0,1,0,32,HIGH
,,,13730-100515,2248.0,2242.0,0.0,6.0,10,5,2,3,113,4,0,2,2,6,5,0,1,6,5,0,1,1,0,10,HIGH
,,,13730-100520,3655.0,2938.0,0.0,717.0,61,4,8,49,140,42,0,8,34,19,4,0,15,15,4,0,11,0,0,61,HIGH
BMA V (Central),B091-BKK,True Town BMA 37 - ถนนสีลม,13730-100525,7314.0,4396.0,669.0,2249.0,137,7,20,110,236,83,0,14,69,54,7,6,41,51,7,6,38,0,137,137,HIGH
BMA V (Central),B091-BKK,True Town BMA 37 - ถนนสีลม,13730-100530,15563.0,10449.0,2601.0,2513.0,172,11,54,107,626,96,1,31,64,76,10,23,43,67,10,21,36,0,172,172,HIGH
BMA V (Central),B091-BKK,True Town BMA 37 - ถนนสีลม,13730-100535,7053.0,2695.0,940.0,3418.0,138,3,24,111,432,88,0,12,76,50,3,12,35,46,3,10,33,1,138,138,HIGH
,,,13730-100540,2137.0,1529.0,83.0,525.0,37,2,9,26,168,22,0,5,17,15,2,4,9,13,2,3,8,0,0,37,HIGH
,,,13730-100565,1715.0,1676.0,39.0,0.0,22,4,8,10,96,15,0,5,10,7,4,3,0,5,4,1,0,1,0,22,HIGH
,,,13730-100655,1118.0,1114.0,0.0,4.0,9,2,1,6,92,6,0,1,5,3,2,0,1,2,2,0,0,0,0,9,HIGH
BMA II (South West),B073-BKK,True Town BMA 9 - ม.ราชภัฏบ้านสมเด็จ,13735-100490,3123.0,2543.0,249.0,331.0,41,4,5,32,165,20,0,2,18,21,4,3,14,15,4,3,8,1,41,41,HIGH
,,,13735-100500,1583.0,1567.0,0.0,16.0,8,5,1,2,149,2,0,1,1,6,5,0,1,6,5,0,1,3,0,8,HIGH
,,,13735-100510,2107.0,1592.0,19.0,496.0,59,3,12,44,194,26,0,10,16,33,3,2,28,25,3,1,21,0,0,59,HIGH
,,,13735-100520,5259.0,5215.0,32.0,12.0,29,7,14,8,159,17,0,12,5,12,7,2,3,10,7,2,1,0,0,29,HIGH
,,,13735-100525,7194.0,5759.0,1036.0,399.0,84,7,38,39,268,49,4,23,22,35,3,15,17,26,3,11,12,0,0,84,HIGH
,,,13735-100530,2255.0,1451.0,701.0,103.0,50,2,31,17,268,40,0,27,13,10,2,4,4,9,2,4,3,0,0,50,HIGH
,,,13735-100535,9636.0,9070.0,544.0,22.0,27,7,10,10,162,12,0,6,6,15,7,4,4,12,7,4,1,0,0,27,HIGH
,,,13735-100560,3644.0,2496.0,348.0,800.0,71,5,26,40,400,44,1,21,22,27,4,5,18,24,4,5,15,0,0,71,HIGH
,,,13735-100565,3614.0,2680.0,933.0,1.0,137,8,112,17,626,109,2,91,16,28,6,21,1,21,6,15,0,0,0,137,HIGH
,,,13735-100570,1080.0,889.0,142.0,49.0,9,1,5,3,160,5,0,3,2,4,1,2,1,4,1,2,1,0,0,9,HIGH
,,,13735-100575,1277.0,1250.0,20.0,7.0,10,2,4,4,148,5,0,2,3,5,2,2,1,4,2,1,1,1,0,10,HIGH
,,,13735-100580,3022.0,2573.0,449.0,0.0,44,6,34,4,475,29,0,25,4,15,6,9,0,13,6,7,0,0,0,44,HIGH
,,,13735-100585,811.0,795.0,0.0,16.0,12,1,3,8,172,8,0,3,5,4,1,0,3,2,1,0,1,0,0,12,HIGH
,,,13735-100595,1318.0,1259.0,35.0,24.0,17,4,3,10,104,9,0,1,8,8,4,2,2,6,4,1,1,1,0,17,HIGH
,,,13740-100515,2939.0,2905.0,28.0,6.0,25,5,14,6,122,16,0,11,5,9,5,3,1,8,5,2,1,0,0,25,HIGH
,,,13740-100520,739.0,673.0,0.0,66.0,36,2,1,33,85,27,0,1,26,9,2,0,7,9,2,0,7,1,0,36,HIGH
,,,13740-100545,2454.0,1380.0,816.0,258.0,181,2,55,124,155,133,0,33,100,48,2,22,24,33,2,20,11,1,0,181,HIGH
,,,13740-100555,1468.0,701.0,750.0,17.0,42,3,36,3,199,20,0,19,1,22,3,17,2,20,3,16,1,1,0,42,HIGH
BMA V (Central),B112-BKK,True Town BMA 36 - ย่านอโศก ตลาดรวมทรัพย์,13740-100560,2742.0,1821.0,921.0,0.0,83,4,66,13,478,63,1,49,13,20,3,17,0,17,3,14,0,0,83,83,HIGH
,,,13740-100585,1375.0,1303.0,54.0,18.0,9,2,4,3,103,5,0,3,2,4,2,1,1,4,2,1,1,0,0,9,HIGH
,,,13740-100615,2370.0,2229.0,126.0,15.0,12,5,2,5,83,3,0,1,2,9,5,1,3,7,5,1,1,0,0,12,HIGH
,,,13745-100485,741.0,727.0,0.0,14.0,25,2,3,20,95,18,0,3,15,7,2,0,5,3,2,0,1,2,0,25,HIGH
,,,13745-100495,4073.0,4049.0,3.0,21.0,33,8,11,14,103,20,0,9,11,13,8,2,3,10,8,0,2,6,0,33,HIGH
BMA V (Central),B093-BKK,True Town BMA 34 - เยาวราช สำเพ็ง,13745-100500,4026.0,3607.0,236.0,183.0,63,6,7,50,226,39,0,5,34,24,6,2,16,17,6,2,9,1,63,63,HIGH
BMA V (Central),B093-BKK,True Town BMA 34 - เยาวราช สำเพ็ง,13745-100505,4259.0,4081.0,0.0,178.0,51,6,10,35,392,31,0,10,21,20,6,0,14,14,6,0,8,1,51,51,HIGH
BMA V (Central),B093-BKK,True Town BMA 34 - เยาวราช สำเพ็ง,13745-100510,4982.0,4640.0,8.0,334.0,44,8,10,26,308,21,0,8,13,23,8,2,13,18,8,1,9,1,44,44,HIGH
,,,13745-100520,2869.0,2661.0,150.0,58.0,60,3,30,27,350,51,0,27,24,9,3,3,3,8,3,3,2,1,0,60,HIGH
,,,13745-100525,12214.0,1799.0,9887.0,528.0,169,2,152,15,112,56,0,47,9,113,2,105,6,101,2,95,4,0,0,169,HIGH
BMA V (Central),B101-BKK,True Town BMA 33 - สยามแสควร์,13745-100530,9385.0,5958.0,2850.0,577.0,253,4,91,158,563,201,0,68,133,52,4,23,25,45,4,22,19,2,253,253,HIGH
BMA V (Central),B101-BKK,True Town BMA 33 - สยามแสควร์,13745-100535,20329.0,4198.0,15910.0,221.0,882,4,772,106,191,540,0,450,90,342,4,322,16,259,4,248,7,0,882,882,HIGH
,,,13745-100540,7625.0,6883.0,433.0,309.0,102,9,43,50,549,64,0,30,34,38,9,13,16,24,9,7,8,1,0,102,HIGH
,,,13745-100545,3744.0,2944.0,723.0,77.0,51,3,27,21,333,31,0,16,15,20,3,11,6,17,3,10,4,1,0,51,HIGH
,,,13745-100550,3340.0,2923.0,124.0,293.0,63,9,28,26,282,36,0,20,16,27,9,8,10,22,9,5,8,0,0,63,HIGH
,,,13745-100555,6129.0,5767.0,109.0,253.0,64,11,16,37,273,40,0,9,31,24,11,7,6,21,11,5,5,1,0,64,HIGH
BMA V (Central),B112-BKK,True Town BMA 36 - ย่านอโศก ตลาดรวมทรัพย์,13745-100560,13453.0,6526.0,1114.0,5813.0,327,9,78,240,405,166,1,38,127,161,8,40,113,126,8,23,95,0,327,327,HIGH
,,,13745-100565,1944.0,1679.0,0.0,265.0,19,2,0,17,103,8,0,0,8,11,2,0,9,9,2,0,7,0,0,19,HIGH
,,,13745-100625,2109.0,1990.0,86.0,33.0,23,4,10,9,124,16,0,9,7,7,4,1,2,6,4,1,1,0,0,23,HIGH
,,,13750-100500,824.0,653.0,17.0,154.0,36,1,7,28,129,22,0,6,16,14,1,1,12,9,1,1,7,0,0,36,HIGH
,,,13750-100505,2420.0,2366.0,49.0,5.0,25,5,5,15,92,14,0,3,11,11,5,2,4,6,5,1,0,0,0,25,HIGH
,,,13750-100510,2217.0,2069.0,0.0,148.0,31,3,0,28,98,15,0,0,15,16,3,0,13,15,3,0,12,2,0,31,HIGH
,,,13750-100520,1823.0,1235.0,442.0,146.0,31,1,19,11,168,17,0,12,5,14,1,7,6,12,1,5,6,0,0,31,HIGH
,,,13750-100525,2317.0,2107.0,181.0,29.0,36,3,19,14,87,24,0,12,12,12,3,7,2,9,3,5,1,1,0,36,HIGH
,,,13750-100530,4885.0,2480.0,2377.0,28.0,120,1,89,30,487,84,0,60,24,36,1,29,6,29,1,26,2,0,0,120,HIGH
,,,13750-100535,5622.0,1417.0,4189.0,16.0,137,1,129,7,627,96,0,90,6,41,1,39,1,38,1,36,1,0,0,137,HIGH
,,,13750-100540,3029.0,2744.0,269.0,16.0,59,4,37,18,288,43,0,28,15,16,4,9,3,14,4,7,3,0,0,59,HIGH
BMA V (Central),B112-BKK,True Town BMA 36 - ย่านอโศก ตลาดรวมทรัพย์,13750-100560,2931.0,2056.0,615.0,260.0,29,2,12,15,140,13,0,5,8,16,2,7,7,16,2,7,7,2,29,29,HIGH
,,,13755-100475,2918.0,2374.0,542.0,2.0,26,6,7,13,104,16,0,4,12,10,6,3,1,9,6,3,0,1,0,26,HIGH
,,,13755-100480,2305.0,2220.0,77.0,8.0,26,2,18,6,85,20,0,16,4,6,2,2,2,5,2,2,1,0,0,26,HIGH
BMA II (South West),B083-BKK,True Town BMA 13 - ศิริราช วังหลัง,13755-100485,2211.0,662.0,1035.0,514.0,116,1,12,103,224,82,0,7,75,34,1,5,28,27,1,5,21,3,116,116,HIGH
,,,13755-100495,3832.0,3544.0,147.0,141.0,37,6,6,25,253,16,0,4,12,21,6,2,13,16,6,2,8,1,0,37,HIGH
,,,13755-100500,3158.0,3042.0,6.0,110.0,56,5,3,48,125,35,0,2,33,21,5,1,15,14,5,1,8,4,0,56,HIGH
,,,13755-100525,2583.0,2074.0,492.0,17.0,31,5,13,13,104,18,0,9,9,13,5,4,4,10,5,4,1,2,0,31,HIGH
,,,13755-100530,4498.0,4333.0,87.0,78.0,37,7,15,15,240,22,0,11,11,15,7,4,4,14,7,3,4,0,0,37,HIGH
,,,13755-100535,6285.0,5877.0,396.0,12.0,447,12,373,62,260,399,0,342,57,48,12,31,5,38,12,25,1,3,0,447,HIGH
,,,13755-100540,2709.0,2649.0,30.0,30.0,31,8,10,13,188,19,0,8,11,12,8,2,2,11,8,2,1,0,0,31,HIGH
,,,13755-100545,1107.0,1034.0,0.0,73.0,7,2,2,3,86,4,0,2,2,3,2,0,1,3,2,0,1,2,0,7,HIGH
,,,13755-100570,3129.0,2525.0,84.0,520.0,91,3,11,77,167,62,0,8,54,29,3,3,23,19,3,1,15,0,0,91,HIGH
,,,13755-100575,1875.0,1690.0,185.0,0.0,11,3,6,2,101,6,0,4,2,5,3,2,0,5,3,2,0,0,0,11,HIGH
,,,13755-100610,2397.0,2157.0,198.0,42.0,42,5,6,31,140,27,0,3,24,15,5,3,7,9,5,2,2,1,0,42,HIGH
,,,13755-100620,2890.0,2734.0,31.0,125.0,110,5,4,101,146,84,0,2,82,26,5,2,19,13,5,1,7,1,0,110,HIGH
,,,13755-100625,2134.0,1923.0,66.0,145.0,72,4,12,56,130,54,0,11,43,18,4,1,13,11,4,1,6,0,0,72,HIGH
BMA II (South West),B083-BKK,True Town BMA 13 - ศิริราช วังหลัง,13760-100480,3127.0,2556.0,449.0,122.0,42,3,20,19,141,21,0,5,16,21,3,15,3,20,3,15,2,1,42,42,HIGH
BMA II (South West),B083-BKK,True Town BMA 13 - ศิริราช วังหลัง,13760-100485,7950.0,7049.0,252.0,649.0,87,6,7,74,280,62,0,6,56,25,6,1,18,20,6,1,13,0,87,87,HIGH
,,,13760-100495,1012.0,939.0,72.0,1.0,21,2,12,7,183,16,0,10,6,5,2,2,1,4,2,2,0,1,0,21,HIGH
,,,13760-100500,1430.0,1169.0,6.0,255.0,50,3,4,43,194,34,1,3,30,16,2,1,13,8,2,1,5,1,0,50,HIGH
,,,13760-100510,1451.0,1196.0,0.0,255.0,38,4,1,33,94,20,1,1,18,18,3,0,15,16,3,0,13,0,0,38,HIGH
,,,13760-100530,3197.0,2941.0,169.0,87.0,34,2,10,22,98,19,0,6,13,15,2,4,9,13,2,4,7,2,0,34,HIGH
,,,13760-100540,3499.0,3465.0,0.0,34.0,13,6,3,4,94,6,0,3,3,7,6,0,1,7,6,0,1,0,0,13,HIGH
,,,13760-100565,7193.0,2123.0,2640.0,2430.0,160,4,55,101,429,100,1,34,65,60,3,21,36,47,3,19,25,0,0,160,HIGH
,,,13765-100440,1209.0,975.0,70.0,164.0,95,1,4,90,193,76,0,3,73,19,1,1,17,11,1,1,9,0,0,95,HIGH
,,,13765-100490,645.0,584.0,56.0,5.0,17,3,5,9,141,12,1,4,7,5,2,1,2,3,2,1,0,0,0,17,HIGH
,,,13765-100495,2556.0,2548.0,4.0,4.0,49,7,30,12,301,39,0,28,11,10,7,2,1,7,7,0,0,1,0,49,HIGH
,,,13765-100500,1156.0,1023.0,0.0,133.0,23,3,0,20,118,14,0,0,14,9,3,0,6,8,3,0,5,1,0,23,HIGH
,,,13765-100535,14754.0,10046.0,553.0,4155.0,288,12,31,245,307,206,0,19,187,82,12,12,58,61,12,12,37,0,0,288,HIGH
,,,13765-100540,2644.0,2299.0,323.0,22.0,15,4,5,6,116,6,0,4,2,9,4,1,4,8,4,1,3,0,0,15,HIGH
,,,13765-100555,5446.0,4887.0,527.0,32.0,55,7,13,35,175,36,0,9,27,19,7,4,8,11,7,3,1,3,0,55,HIGH
,,,13765-100560,2331.0,2054.0,0.0,277.0,48,4,8,36,107,26,0,8,18,22,4,0,18,15,4,0,11,1,0,48,HIGH
,,,13765-100565,58044.0,9276.0,7415.0,41353.0,3914,8,2780,1126,418,3509,0,2756,753,405,8,24,373,311,8,20,283,1,0,3914,HIGH
,,,13765-100620,2340.0,2211.0,4.0,125.0,107,5,1,101,114,79,0,0,79,28,5,1,22,13,5,0,8,1,0,107,HIGH
,,,13765-100640,2437.0,2141.0,94.0,202.0,94,4,9,81,87,66,0,5,61,28,4,4,20,13,4,3,6,0,0,94,HIGH
,,,13770-100500,1587.0,1012.0,0.0,575.0,46,2,1,43,96,29,0,1,28,17,2,0,15,12,2,0,10,1,0,46,HIGH
,,,13770-100535,4670.0,4668.0,0.0,2.0,19,8,1,10,102,10,0,1,9,9,8,0,1,8,8,0,0,0,0,19,HIGH
,,,13770-100560,957.0,721.0,209.0,27.0,29,1,12,16,97,22,0,8,14,7,1,4,2,6,1,4,1,1,0,29,HIGH
,,,13770-100565,1337.0,530.0,748.0,59.0,132,1,33,98,276,111,0,24,87,21,1,9,11,12,1,8,3,1,0,132,HIGH
,,,13770-100570,2993.0,2397.0,393.0,203.0,32,2,13,17,122,19,0,6,13,13,2,7,4,11,2,6,3,0,0,32,HIGH
,,,13770-100620,1883.0,1871.0,0.0,12.0,36,3,0,33,102,28,0,0,28,8,3,0,5,4,3,0,1,0,0,36,HIGH
BMA IV (South East),B041-BKK,True Town BMA 26 - ย่านเดอะมอลล์บางกะปิ,13770-100640,5886.0,2625.0,2322.0,939.0,428,5,72,351,522,310,0,38,272,118,5,34,79,79,5,30,44,1,428,428,HIGH
,,,13775-100480,4820.0,4501.0,294.0,25.0,27,8,6,13,98,14,0,4,10,13,8,2,3,11,8,2,1,0,0,27,HIGH
,,,13775-100485,1361.0,1279.0,80.0,2.0,12,2,1,9,83,8,0,0,8,4,2,1,1,3,2,1,0,1,0,12,HIGH
,,,13775-100505,4148.0,3575.0,0.0,573.0,72,3,2,67,96,64,0,2,62,8,3,0,5,6,3,0,3,4,0,72,HIGH
,,,13775-100560,2738.0,2658.0,14.0,66.0,64,5,7,52,83,45,0,6,39,19,5,1,13,13,5,1,7,2,0,64,HIGH
,,,13775-100565,3758.0,3656.0,36.0,66.0,47,8,3,36,86,29,0,1,28,18,8,2,8,14,8,1,5,0,0,47,HIGH
,,,13775-100570,8756.0,7007.0,1234.0,515.0,62,8,28,26,210,27,0,15,12,35,8,13,14,28,8,12,8,2,0,62,HIGH
BMA V (Central),B111-BKK,True Town BMA 38 - Town in Town,13775-100605,2340.0,2192.0,147.0,1.0,14,2,9,3,126,8,0,6,2,6,2,3,1,5,2,3,0,0,14,14,HIGH
BMA V (Central),B111-BKK,True Town BMA 38 - Town in Town,13775-100610,1191.0,1082.0,93.0,16.0,28,2,7,19,202,18,0,4,14,10,2,3,5,6,2,3,1,1,28,28,HIGH
,,,13775-100620,2712.0,2544.0,90.0,78.0,65,4,4,57,119,51,0,2,49,14,4,2,8,11,4,2,5,2,0,65,HIGH
,,,13775-100635,2234.0,2085.0,120.0,29.0,42,4,4,34,86,27,0,1,26,15,4,3,8,8,4,2,2,1,0,42,HIGH
,,,13775-100675,1780.0,1592.0,89.0,99.0,53,3,4,46,110,32,0,3,29,21,3,1,17,9,3,1,5,0,0,53,HIGH
,,,13780-100475,4824.0,3179.0,1400.0,245.0,110,3,51,56,513,67,0,26,41,43,3,25,15,38,3,24,11,0,0,110,HIGH
,,,13780-100485,5698.0,5636.0,29.0,33.0,30,5,3,22,105,20,0,2,18,10,5,1,4,8,5,1,2,1,0,30,HIGH
,,,13780-100505,1965.0,1511.0,27.0,427.0,51,3,5,43,101,34,0,4,30,17,3,1,13,11,3,1,7,6,0,51,HIGH
,,,13780-100540,1260.0,1106.0,0.0,154.0,50,1,10,39,98,42,0,10,32,8,1,0,7,5,1,0,4,1,0,50,HIGH
BMA V (Central),B102-BKK,True Town BMA 35 - มหาวิทยาลัยหอการค้าไทย,13780-100555,1255.0,1219.0,0.0,36.0,32,2,7,23,104,26,0,7,19,6,2,0,4,4,2,0,2,1,32,32,HIGH
BMA V (Central),B102-BKK,True Town BMA 35 - มหาวิทยาลัยหอการค้าไทย,13780-100560,4371.0,4239.0,0.0,132.0,59,5,1,53,143,36,0,1,35,23,5,0,18,12,5,0,7,1,59,59,HIGH
,,,13780-100565,1755.0,1363.0,384.0,8.0,159,3,135,21,87,140,0,121,19,19,3,14,2,9,3,5,1,0,0,159,HIGH
,,,13780-100570,3257.0,3068.0,10.0,179.0,33,5,14,14,168,24,0,13,11,9,5,1,3,8,5,1,2,0,0,33,HIGH
,,,13780-100580,2003.0,1707.0,272.0,24.0,25,4,3,18,96,17,0,2,15,8,4,1,3,8,4,1,3,0,0,25,HIGH
,,,13785-100510,815.0,687.0,113.0,15.0,19,1,6,12,107,10,0,1,9,9,1,5,3,8,1,5,2,6,0,19,HIGH
,,,13785-100515,1663.0,1571.0,56.0,36.0,33,2,9,22,105,20,0,6,14,13,2,3,8,8,2,3,3,0,0,33,HIGH
,,,13785-100540,4453.0,4042.0,0.0,411.0,63,4,15,44,216,37,0,15,22,26,4,0,22,20,4,0,16,2,0,63,HIGH
,,,13785-100545,6586.0,5782.0,148.0,656.0,72,6,13,53,275,25,0,8,17,47,6,5,36,35,6,4,25,0,0,72,HIGH
,,,13785-100565,2552.0,2508.0,0.0,44.0,34,5,5,24,88,24,0,5,19,10,5,0,5,7,5,0,2,0,0,34,HIGH
,,,13785-100570,3173.0,3055.0,60.0,58.0,26,7,7,12,106,13,0,5,8,13,7,2,4,13,7,2,4,1,0,26,HIGH
,,,13785-100575,3233.0,3212.0,0.0,21.0,22,6,3,13,124,13,0,3,10,9,6,0,3,8,6,0,2,0,0,22,HIGH
,,,13785-100610,2697.0,2534.0,150.0,13.0,33,6,11,16,96,21,0,7,14,12,6,4,2,10,6,3,1,0,0,33,HIGH
,,,13790-100275,613.0,0.0,607.0,6.0,21,0,20,1,107,7,0,7,0,14,0,13,1,14,0,13,1,0,0,21,HIGH
,,,13790-100545,2668.0,2606.0,46.0,16.0,14,3,5,6,131,7,0,3,4,7,3,2,2,7,3,2,2,0,0,14,HIGH
,,,13790-100570,1477.0,1162.0,132.0,183.0,92,2,28,62,121,75,0,22,53,17,2,6,9,12,2,4,6,0,0,92,HIGH
BMA V (Central),B103-BKK,True Town BMA 39 - ตลาดเมืองไทยภัทร ทรูทาวเวอร์ ไชน่าทาวน์,13790-100575,3151.0,1976.0,268.0,907.0,65,2,3,60,154,39,0,2,37,26,2,1,23,23,2,1,20,0,65,65,HIGH
,,,13795-100325,781.0,781.0,0.0,0.0,5,3,1,1,94,2,0,1,1,3,3,0,0,3,3,0,0,1,0,5,HIGH
,,,13795-100540,3790.0,3662.0,1.0,127.0,22,5,2,15,128,10,0,1,9,12,5,1,6,10,5,0,5,0,0,22,HIGH
,,,13795-100545,5037.0,4639.0,385.0,13.0,34,6,7,21,141,22,0,3,19,12,6,4,2,11,6,4,1,0,0,34,HIGH
,,,13795-100595,1268.0,1130.0,0.0,138.0,43,3,3,37,141,20,0,3,17,23,3,0,20,15,3,0,12,1,0,43,HIGH
,,,13795-100605,785.0,779.0,0.0,6.0,11,2,2,7,84,7,0,2,5,4,2,0,2,2,2,0,0,0,0,11,HIGH
,,,13795-100625,1998.0,1858.0,0.0,140.0,73,3,4,66,99,53,0,4,49,20,3,0,17,9,3,0,6,1,0,73,HIGH
R07-West,Nakhon Pathom,True Town UPC55 - นครปฐม,13800-100325,2759.0,2742.0,0.0,17.0,20,4,0,16,175,13,0,0,13,7,4,0,3,6,4,0,2,0,20,20,HIGH
,,,13800-100560,968.0,954.0,0.0,14.0,10,2,2,6,94,7,0,2,5,3,2,0,1,3,2,0,1,0,0,10,HIGH
,,,13805-100550,3042.0,2610.0,73.0,359.0,224,3,41,180,94,195,0,34,161,29,3,7,19,15,3,5,7,0,0,224,HIGH
,,,13805-100595,1660.0,1629.0,0.0,31.0,14,2,0,12,104,9,0,0,9,5,2,0,3,4,2,0,2,2,0,14,HIGH
,,,13805-100605,964.0,927.0,0.0,37.0,23,1,2,20,95,19,0,2,17,4,1,0,3,2,1,0,1,1,0,23,HIGH
,,,13805-100610,1666.0,0.0,1644.0,22.0,40,0,37,3,161,20,0,18,2,20,0,19,1,18,0,17,1,0,0,40,HIGH
,,,13805-100615,1639.0,1416.0,223.0,0.0,21,3,17,1,147,11,0,10,1,10,3,7,0,9,3,6,0,0,0,21,HIGH
,,,13810-100520,1534.0,1021.0,503.0,10.0,23,2,17,4,143,13,0,10,3,10,2,7,1,10,2,7,1,0,0,23,HIGH
,,,13810-100530,1979.0,1659.0,243.0,77.0,30,3,10,17,156,17,0,6,11,13,3,4,6,11,3,3,5,1,0,30,HIGH
,,,13810-100555,6984.0,5135.0,75.0,1774.0,91,6,15,70,140,50,0,11,39,41,6,4,31,36,6,3,27,0,0,91,HIGH
,,,13810-100560,1420.0,1366.0,51.0,3.0,24,2,5,17,122,20,0,4,16,4,2,1,1,3,2,1,0,1,0,24,HIGH
,,,13815-100040,3862.0,3704.0,0.0,158.0,67,5,0,62,142,42,0,0,42,25,5,0,20,16,5,0,11,0,0,67,HIGH
,,,13815-100045,576.0,527.0,0.0,49.0,20,1,0,19,122,14,0,0,14,6,1,0,5,3,1,0,2,1,0,20,HIGH
,,,13815-100560,5038.0,4501.0,481.0,56.0,68,5,22,41,282,46,0,16,30,22,5,6,11,15,5,5,5,3,0,68,HIGH
,,,13815-100595,1269.0,1260.0,0.0,9.0,30,2,1,27,121,24,0,1,23,6,2,0,4,2,2,0,0,1,0,30,HIGH
BMA III (North East),B051-BKK,True Town BMA 21 - ตลาดมีนบุรี,13815-100725,3289.0,3055.0,77.0,157.0,77,8,2,67,128,49,0,1,48,28,8,1,19,16,8,1,7,1,77,77,HIGH
,,,13820-100055,968.0,950.0,0.0,18.0,11,2,0,9,88,7,0,0,7,4,2,0,2,3,2,0,1,1,0,11,HIGH
,,,13820-100560,1729.0,0.0,1719.0,10.0,49,0,38,11,346,27,0,18,9,22,0,20,2,19,0,18,1,1,0,49,HIGH
,,,13820-100590,570.0,567.0,0.0,3.0,16,1,0,15,88,14,0,0,14,2,1,0,1,1,1,0,0,2,0,16,HIGH
,,,13820-100595,1618.0,1614.0,0.0,4.0,11,2,1,8,84,7,0,1,6,4,2,0,2,2,2,0,0,0,0,11,HIGH
,,,13825-100580,2280.0,2250.0,12.0,18.0,44,4,1,39,143,33,0,0,33,11,4,1,6,7,4,1,2,0,0,44,HIGH
,,,13825-100590,1141.0,911.0,175.0,55.0,27,1,10,16,155,15,0,3,12,12,1,7,4,8,1,5,2,0,0,27,HIGH
,,,13825-100675,2281.0,0.0,2267.0,14.0,55,0,46,9,105,27,0,19,8,28,0,27,1,26,0,25,1,0,0,55,HIGH
,,,13830-100565,7374.0,1764.0,5584.0,26.0,561,2,547,12,180,312,0,304,8,249,2,243,4,175,2,170,3,1,0,561,HIGH
,,,13830-100675,771.0,0.0,771.0,0.0,54,0,51,3,233,36,0,33,3,18,0,18,0,15,0,15,0,0,0,54,HIGH
,,,13835-100570,1297.0,1229.0,30.0,38.0,22,2,6,14,187,14,0,5,9,8,2,1,5,5,2,1,2,1,0,22,HIGH
,,,13835-100595,866.0,506.0,355.0,5.0,14,1,7,6,85,9,0,4,5,5,1,3,1,5,1,3,1,1,0,14,HIGH
,,,13845-100495,2120.0,2057.0,0.0,63.0,22,6,3,13,101,12,0,3,9,10,6,0,4,10,6,0,4,3,0,22,HIGH
,,,13845-100540,1318.0,1315.0,0.0,3.0,7,2,3,2,89,4,0,3,1,3,2,0,1,2,2,0,0,0,0,7,HIGH
,,,13845-100545,1827.0,1809.0,0.0,18.0,16,2,1,13,140,11,0,1,10,5,2,0,3,4,2,0,2,1,0,16,HIGH
BMA I (North West),B022-BKK,True Town BMA 2 - มหาวิทยาลัยเกษตรศาสตร์ & ตลาดอมรพันธ์,13845-100570,4750.0,4517.0,216.0,17.0,21,5,5,11,161,12,0,4,8,9,5,1,3,8,5,1,2,0,21,21,HIGH
,,,13855-100540,2313.0,1152.0,1006.0,155.0,37,2,29,6,151,24,0,20,4,13,2,9,2,12,2,9,1,0,0,37,HIGH
,,,13860-100535,3322.0,2968.0,326.0,28.0,88,5,10,73,122,72,0,5,67,16,5,5,6,13,5,5,3,1,0,88,HIGH
,,,13860-100540,2176.0,1810.0,363.0,3.0,34,3,10,21,148,26,0,7,19,8,3,3,2,6,3,3,0,0,0,34,HIGH
,,,13860-100640,2811.0,2371.0,413.0,27.0,40,5,6,29,155,24,0,1,23,16,5,5,6,13,5,5,3,0,0,40,HIGH
,,,13865-100615,1908.0,1779.0,95.0,34.0,25,4,1,20,99,14,0,0,14,11,4,1,6,8,4,1,3,0,0,25,HIGH
,,,13870-100495,616.0,0.0,531.0,85.0,142,0,22,120,185,112,0,7,105,30,0,15,15,15,0,12,3,1,0,142,HIGH
,,,13875-100530,894.0,892.0,0.0,2.0,16,2,0,14,89,13,0,0,13,3,2,0,1,2,2,0,0,0,0,16,HIGH
BMA I (North West),B013-NTB,True Town BMA 6 - ตลาด BB Market ,13880-100405,8085.0,7152.0,699.0,234.0,177,6,13,158,141,131,0,7,124,46,6,6,34,29,6,5,18,0,177,177,HIGH
,,,13880-100410,2515.0,0.0,2477.0,38.0,61,0,32,29,237,35,0,10,25,26,0,22,4,25,0,22,3,0,0,61,HIGH
,,,13895-100560,1898.0,1850.0,4.0,44.0,170,3,2,165,96,162,0,1,161,8,3,1,4,5,3,0,2,0,0,170,HIGH
,,,13900-100605,892.0,866.0,25.0,1.0,33,3,2,28,91,28,0,1,27,5,3,1,1,4,3,1,0,0,0,33,HIGH
,,,13905-100525,5287.0,4153.0,1034.0,100.0,96,3,51,42,243,67,0,33,34,29,3,18,8,24,3,16,5,1,0,96,HIGH
,,,13905-100535,2842.0,2835.0,0.0,7.0,15,5,3,7,87,8,0,3,5,7,5,0,2,5,5,0,0,1,0,15,HIGH
,,,13915-100495,2561.0,2550.0,7.0,4.0,18,5,2,11,97,10,0,1,9,8,5,1,2,6,5,1,0,1,0,18,HIGH
,,,13915-100545,1714.0,1439.0,91.0,184.0,421,2,13,406,91,386,0,7,379,35,2,6,27,12,2,6,4,0,0,421,HIGH
,,,13915-100550,3933.0,3365.0,408.0,160.0,84,2,11,71,158,62,0,5,57,22,2,6,14,19,2,6,11,0,0,84,HIGH
,,,13920-100600,5732.0,5731.0,0.0,1.0,7,2,0,5,115,4,0,0,4,3,2,0,1,2,2,0,0,0,0,7,HIGH
,,,13925-100640,2513.0,2466.0,8.0,39.0,21,4,4,13,99,12,0,3,9,9,4,1,4,7,4,1,2,2,0,21,HIGH
BMA III (North East),B034-PTT,True Town BMA 17 - มหาวิทยาลัยรังสิต,13965-100585,3478.0,3196.0,218.0,64.0,60,5,7,48,97,38,0,4,34,22,5,3,14,13,5,2,6,0,60,60,HIGH
,,,13965-100620,2774.0,2345.0,378.0,51.0,149,4,16,129,133,126,0,6,120,23,4,10,9,18,4,9,5,0,0,149,HIGH
BMA III (North East),B032-PTT,True Town BMA 14 - ฟิวเจอร์พาร์ค-ตลาดรังสิต,13990-100615,3449.0,410.0,2966.0,73.0,117,1,81,35,332,62,0,33,29,55,1,48,6,46,1,42,3,0,117,117,HIGH
R07-West,Kanchanaburi,True Town UPC50 - กาญจนบุรี,14025-099530,2406.0,2378.0,7.0,21.0,43,4,2,37,93,29,0,0,29,14,4,2,8,6,4,1,1,2,43,43,HIGH
,,,14070-100605,3351.0,3069.0,171.0,111.0,30,3,6,21,180,16,0,2,14,14,3,4,7,12,3,4,5,1,0,30,HIGH
,,,14705-101410,814.0,318.0,436.0,60.0,99,1,4,94,109,79,0,3,76,20,1,1,18,5,1,1,3,0,0,99,HIGH
,,,14975-102095,1168.0,1089.0,72.0,7.0,60,3,8,49,141,50,0,4,46,10,3,4,3,8,3,4,1,2,0,60,HIGH
,,,14975-102100,738.0,738.0,0.0,0.0,8,2,0,6,92,6,0,0,6,2,2,0,0,2,2,0,0,0,0,8,HIGH
,,,15000-102115,962.0,678.0,262.0,22.0,39,1,19,19,126,23,0,10,13,16,1,9,6,11,1,8,2,0,0,39,HIGH
R03-NE Upper,Khon Kaen,True Town UPC20 - ขอนแก่น,16430-102830,981.0,973.0,0.0,8.0,14,3,0,11,130,9,0,0,9,5,3,0,2,4,3,0,1,0,14,14,HIGH
,,,16435-102835,660.0,630.0,0.0,30.0,16,1,1,14,110,11,0,1,10,5,1,0,4,3,1,0,2,1,0,16,HIGH
,,,16465-102825,2784.0,2656.0,0.0,128.0,56,4,0,52,188,33,0,0,33,23,4,0,19,13,4,0,9,0,0,56,HIGH
,,,16485-102815,1033.0,992.0,0.0,41.0,22,1,1,20,196,18,0,1,17,4,1,0,3,3,1,0,2,0,0,22,HIGH
R02-North Lower,Phitsanulok,True Town UPC14 - พิษณุโลก,16755-100195,2917.0,2650.0,0.0,267.0,55,3,0,52,123,31,0,0,31,24,3,0,21,20,3,0,17,0,55,55,HIGH
,,,16815-100260,643.0,640.0,3.0,0.0,38,3,19,16,165,33,1,16,16,5,2,3,0,2,2,0,0,0,0,38,HIGH
,,,17405-102800,836.0,699.0,136.0,1.0,24,2,6,16,87,17,0,2,15,7,2,4,1,5,2,3,0,0,0,24,HIGH
,,,18750-098940,926.0,921.0,0.0,5.0,36,3,0,33,90,30,0,0,30,6,3,0,3,3,3,0,0,0,0,36,HIGH
,,,18775-098995,549.0,547.0,0.0,2.0,19,2,1,16,96,15,0,1,14,4,2,0,2,2,2,0,0,0,0,19,HIGH
,,,18785-098985,1046.0,1045.0,0.0,1.0,26,4,7,15,140,21,0,7,14,5,4,0,1,4,4,0,0,0,0,26,HIGH
,,,18785-098995,668.0,610.0,58.0,0.0,23,3,5,15,218,18,0,3,15,5,3,2,0,5,3,2,0,0,0,23,HIGH
,,,18790-098970,1529.0,1466.0,0.0,63.0,23,2,0,21,83,18,0,0,18,5,2,0,3,4,2,0,2,0,0,23,HIGH
,,,18790-098980,802.0,366.0,0.0,436.0,11,2,3,6,97,8,1,3,4,3,1,0,2,3,1,0,2,0,0,11,HIGH
,,,18795-098950,4638.0,3692.0,0.0,946.0,50,3,0,47,127,24,0,0,24,26,3,0,23,22,3,0,19,1,0,50,HIGH
,,,18795-098955,2290.0,1927.0,0.0,363.0,55,2,9,44,209,36,0,9,27,19,2,0,17,17,2,0,15,0,0,55,HIGH
R01-North Upper,Chiang Mai 1,True Town UPC9 - เชียงใหม่ 1,18795-098970,608.0,608.0,0.0,0.0,12,1,3,8,93,11,0,3,8,1,1,0,0,1,1,0,0,0,12,12,HIGH
,,,18795-098975,1177.0,1163.0,2.0,12.0,12,3,3,6,97,7,0,2,5,5,3,1,1,4,3,0,1,1,0,12,HIGH
,,,18795-098990,970.0,932.0,37.0,1.0,28,5,6,17,248,20,0,4,16,8,5,2,1,6,5,1,0,0,0,28,HIGH
R01-North Upper,Chiang Mai 1,True Town UPC9 - เชียงใหม่ 1,18800-098965,2274.0,2254.0,2.0,18.0,51,3,19,29,292,41,0,18,23,10,3,1,6,5,3,0,2,0,51,51,HIGH
R01-North Upper,Chiang Mai 1,True Town UPC9 - เชียงใหม่ 1,18800-098970,692.0,501.0,190.0,1.0,15,1,6,8,93,11,0,4,7,4,1,2,1,3,1,2,0,0,15,15,HIGH
,,,18800-099020,1126.0,1011.0,115.0,0.0,19,2,5,12,93,14,0,2,12,5,2,3,0,4,2,2,0,0,0,19,HIGH
,,,18805-098965,993.0,744.0,201.0,48.0,78,2,36,40,237,63,0,25,38,15,2,11,2,11,2,7,2,1,0,78,HIGH
,,,18805-098975,581.0,579.0,0.0,2.0,44,2,2,40,258,40,0,2,38,4,2,0,2,2,2,0,0,0,0,44,HIGH
,,,18805-098980,595.0,564.0,0.0,31.0,49,2,3,44,180,46,0,3,43,3,2,0,1,3,2,0,1,1,0,49,HIGH
,,,18805-098985,1403.0,1392.0,0.0,11.0,34,4,1,29,140,26,0,1,25,8,4,0,4,5,4,0,1,2,0,34,HIGH
,,,18810-098955,1509.0,1447.0,0.0,62.0,82,2,2,78,217,67,0,2,65,15,2,0,13,6,2,0,4,0,0,82,HIGH
,,,18810-099015,1365.0,348.0,1011.0,6.0,54,1,39,14,194,35,0,22,13,19,1,17,1,17,1,15,1,0,0,54,HIGH
,,,19905-099830,655.0,626.0,4.0,25.0,18,2,2,14,97,13,0,1,12,5,2,1,2,3,2,0,1,0,0,18,HIGH
,,,19910-099825,1005.0,965.0,1.0,39.0,41,1,2,38,111,31,0,1,30,10,1,1,8,4,1,0,3,0,0,41,HIGH
,,,19910-099830,552.0,330.0,0.0,222.0,75,1,1,73,143,52,0,1,51,23,1,0,22,10,1,0,9,1,0,75,HIGH
R01-North Upper,Chiang Rai,True Town UPC4 - เชียงราย,20050-099875,4160.0,3287.0,499.0,374.0,104,2,3,99,90,55,0,1,54,49,2,2,45,33,2,2,29,0,104,104,HIGH
