TDS_REGION,TDS_PROVINCE,TRUETOWN_BLOCK_NAME,TRUETOWN_BLOCK_ID,MAU_RETAIL,MAU_7,MAU_KA,MAU_LT,MERCHANT_COUNT,MERCHANT_COUNT_7,MERCHANT_COUNT_KA,MERCHANT_COUNT_LT,MERCHANT_COUNT_WONGNAI,QUALITY_MERCHANT_COUNT,QUALITY_MERCHANT_COUNT_7,QUALITY_MERCHANT_COUNT_KA,QUALITY_MERCHANT_COUNT_LT,UNIVERSITY_COUNT,IN_TRUETOWN_COUNT,HAVE_BLOCK_ID_COUNT,BLOCK_ID_ZONE,LATITUDE,LONGITUDE,NEAREST_DISTANCE,SELECT_TRUETOWN_BLOCK_NAME
,,,06995-100480,1922.0,1040.0,867.0,15.0,73,1,36,36,152,19,1,17,1,0,0,73,HIGH,6.995,100.48,253265.37846330844,True Town UPC56 - ภูเก็ต
,,,07000-100470,1279.0,1277.0,0.0,2.0,12,3,1,8,87,3,3,0,0,0,0,12,HIGH,7.0,100.47,252030.9521195619,True Town UPC56 - ภูเก็ต
,,,07005-100470,1015.0,967.0,0.0,48.0,21,3,2,16,259,5,2,0,3,1,0,21,HIGH,7.005,100.47,251808.15331364406,True Town UPC56 - ภูเก็ต
,,,07005-100475,1058.0,1057.0,0.0,1.0,14,2,1,11,140,2,2,0,0,0,0,14,HIGH,7.005,100.475,252314.23917217818,True Town UPC56 - ภูเก็ต
,,,07005-100480,3338.0,3301.0,0.0,37.0,13,3,1,9,95,4,3,0,1,0,0,13,HIGH,7.005,100.48,252820.5147387695,True Town UPC56 - ภูเก็ต
,,,07005-100495,2632.0,2575.0,0.0,57.0,81,2,1,78,204,6,2,0,4,0,0,81,HIGH,7.005,100.495,254340.46835544746,True Town UPC56 - ภูเก็ต
,,,07005-100500,1836.0,1611.0,0.0,225.0,47,2,2,43,128,16,1,0,15,0,0,47,HIGH,7.005,100.5,254847.49146580294,True Town UPC56 - ภูเก็ต
,,,07010-100470,700.0,689.0,11.0,0.0,15,2,2,11,297,2,1,1,0,0,0,15,HIGH,7.01,100.47,251586.3860733187,True Town UPC56 - ภูเก็ต
,,,07015-100470,2251.0,1630.0,620.0,1.0,59,2,43,14,108,31,2,29,0,0,0,59,HIGH,7.015,100.47,251365.65312888136,True Town UPC56 - ภูเก็ต
,,,07015-100475,1734.0,1650.0,0.0,84.0,39,2,3,34,194,5,2,0,3,0,0,39,HIGH,7.015,100.475,251872.61676957397,True Town UPC56 - ภูเก็ต
,,,07015-100485,1356.0,1255.0,101.0,0.0,16,1,5,10,116,3,1,2,0,0,0,16,HIGH,7.015,100.485,252887.1023958433,True Town UPC56 - ภูเก็ต
,,,07195-100600,634.0,626.0,0.0,8.0,7,1,0,6,105,2,1,0,1,0,0,7,HIGH,7.195,100.6,257736.17812792235,True Town UPC56 - ภูเก็ต
,,,07880-098395,954.0,949.0,3.0,2.0,15,2,3,10,96,2,2,0,0,0,0,15,HIGH,7.88,98.395,3547.966395690215,True Town UPC56 - ภูเก็ต
,,,07890-098390,811.0,795.0,0.0,16.0,14,1,5,8,93,2,1,0,1,0,0,14,HIGH,7.89,98.39,2348.378153577286,True Town UPC56 - ภูเก็ต
,,,07895-098295,739.0,711.0,28.0,0.0,47,5,41,1,268,5,3,2,0,0,0,47,HIGH,7.895,98.295,8883.843669347458,True Town UPC56 - ภูเก็ต
,,,07895-098365,843.0,339.0,503.0,1.0,35,1,25,9,119,8,1,7,0,0,0,35,HIGH,7.895,98.365,1565.5807434757048,True Town UPC56 - ภูเก็ต
R08-South Upper,Phuket,True Town UPC56 - ภูเก็ต,07905-098375,1398.0,1207.0,187.0,4.0,21,3,3,15,96,4,3,1,0,1,21,21,HIGH,7.905,98.375,0,True Town UPC56 - ภูเก็ต
R08-South Upper,Krabi,True Town UPC61 - กระบี่,08065-098915,1182.0,1166.0,4.0,12.0,40,3,9,28,131,4,3,0,1,0,40,40,HIGH,8.065,98.915,0,True Town UPC61 - กระบี่
,,,09145-099325,951.0,950.0,0.0,1.0,10,2,2,6,104,2,2,0,0,3,0,10,HIGH,9.145,99.325,128311.77700653313,True Town UPC61 - กระบี่
,,,09150-099325,592.0,582.0,7.0,3.0,18,2,2,14,121,3,2,1,0,0,0,18,HIGH,9.15,99.325,128832.49740287491,True Town UPC61 - กระบี่
,,,12550-099960,911.0,516.0,395.0,0.0,31,1,29,1,94,10,1,9,0,0,0,31,HIGH,12.55,99.96,1754.5363757519322,True Town UPC51 - ประจวบคีรีขันธ์
R07-West,Prachuap Khiri khan,True Town UPC51 - ประจวบคีรีขันธ์,12565-099955,1683.0,1683.0,0.0,0.0,16,3,1,12,105,3,3,0,0,0,16,16,HIGH,12.565,99.955,0,True Town UPC51 - ประจวบคีรีขันธ์
,,,12570-099955,1263.0,1238.0,19.0,6.0,41,3,6,32,113,4,3,1,0,0,0,41,HIGH,12.57,99.955,556.1491661481354,True Town UPC51 - ประจวบคีรีขันธ์
,,,12575-099955,2511.0,2438.0,0.0,73.0,68,7,0,61,301,11,6,0,5,0,0,68,HIGH,12.575,99.955,1112.298332296094,True Town UPC51 - ประจวบคีรีขันธ์
,,,12925-100875,3610.0,3574.0,36.0,0.0,26,9,15,2,100,13,9,4,0,0,0,26,HIGH,12.925,100.875,40958.62760719623,True Town UPC33 - ชลบุรี 1
,,,12930-100875,705.0,679.0,26.0,0.0,14,2,10,2,93,4,2,2,0,0,0,14,HIGH,12.93,100.875,40407.42267956259,True Town UPC33 - ชลบุรี 1
,,,12935-100880,1947.0,1597.0,350.0,0.0,51,3,47,1,178,15,3,12,0,0,0,51,HIGH,12.935,100.88,39786.36433724789,True Town UPC33 - ชลบุรี 1
,,,12935-100890,2281.0,2223.0,57.0,1.0,21,6,12,3,89,9,6,3,0,1,0,21,HIGH,12.935,100.89,39668.20598635367,True Town UPC33 - ชลบุรี 1
,,,12950-100885,716.0,706.0,10.0,0.0,16,2,14,0,92,3,2,1,0,0,0,16,HIGH,12.95,100.885,38065.565344232265,True Town UPC33 - ชลบุรี 1
,,,12955-100885,1256.0,288.0,968.0,0.0,39,1,37,1,145,14,1,13,0,0,0,39,HIGH,12.955,100.885,37513.07944038006,True Town UPC33 - ชลบุรี 1
,,,13115-100925,2006.0,1928.0,0.0,78.0,24,2,1,21,93,8,2,0,6,0,0,24,HIGH,13.115,100.925,19465.22081517961,True Town UPC33 - ชลบุรี 1
,,,13170-100925,4170.0,3825.0,341.0,4.0,18,2,5,11,155,5,2,3,0,0,0,18,HIGH,13.17,100.925,13347.579987551711,True Town UPC33 - ชลบุรี 1
,,,13170-100930,2325.0,2102.0,220.0,3.0,43,3,12,28,145,8,3,5,0,1,0,43,HIGH,13.17,100.93,13358.555046652382,True Town UPC33 - ชลบุรี 1
,,,13275-100930,3555.0,3495.0,0.0,60.0,36,3,0,33,121,8,3,0,5,0,0,36,HIGH,13.275,100.93,1754.050191682735,True Town UPC33 - ชลบุรี 1
,,,13285-100915,3743.0,3735.0,0.0,8.0,22,4,3,15,96,5,4,0,1,0,0,22,HIGH,13.285,100.915,1217.0265768714426,True Town UPC33 - ชลบุรี 1
,,,13285-100920,4417.0,4082.0,0.0,335.0,38,4,0,34,93,17,4,0,13,0,0,38,HIGH,13.285,100.92,776.0572424033734,True Town UPC33 - ชลบุรี 1
,,,13285-100925,3107.0,2373.0,0.0,734.0,76,2,1,73,132,27,2,0,25,0,0,76,HIGH,13.285,100.925,556.1491661477817,True Town UPC33 - ชลบุรี 1
,,,13285-100935,1276.0,1265.0,8.0,3.0,17,2,2,13,100,3,2,1,0,2,0,17,HIGH,13.285,100.935,1217.0265768738923,True Town UPC33 - ชลบุรี 1
R05-East,Chonburi 1,True Town UPC33 - ชลบุรี 1,13290-100925,3013.0,2867.0,72.0,74.0,62,3,8,51,170,11,3,3,5,0,62,62,HIGH,13.29,100.925,0,True Town UPC33 - ชลบุรี 1
,,,13335-100950,999.0,968.0,0.0,31.0,10,1,0,9,101,3,1,0,2,0,0,10,HIGH,13.335,100.95,5689.992622681089,True Town UPC33 - ชลบุรี 1
,,,13370-100985,1086.0,1086.0,0.0,0.0,6,2,0,4,89,2,2,0,0,0,0,6,HIGH,13.37,100.985,11016.04010165257,True Town UPC33 - ชลบุรี 1
,,,13550-100275,1553.0,1547.0,0.0,6.0,32,4,2,26,96,4,4,0,0,1,0,32,HIGH,13.55,100.275,25530.998969332915,True Town BMA 7 - ม.บางมด และสวนหมาก
,,,13585-100605,831.0,385.0,422.0,24.0,31,1,11,19,86,11,1,7,3,1,0,31,HIGH,13.585,100.605,15129.504827910258,True Town BMA 7 - ม.บางมด และสวนหมาก
,,,13595-100595,1548.0,1494.0,6.0,48.0,29,5,2,22,217,8,5,1,2,1,0,29,HIGH,13.595,100.595,13635.776032564834,True Town BMA 7 - ม.บางมด และสวนหมาก
,,,13600-100745,1055.0,1048.0,0.0,7.0,76,2,1,73,86,2,2,0,0,0,0,76,HIGH,13.6,100.745,28763.70300348336,True Town BMA 7 - ม.บางมด และสวนหมาก
,,,13605-100705,1334.0,1171.0,146.0,17.0,40,3,8,29,90,10,3,6,1,1,0,40,HIGH,13.605,100.705,24423.061007552948,True Town BMA 7 - ม.บางมด และสวนหมาก
,,,13635-100710,1234.0,1055.0,72.0,107.0,75,1,9,65,121,8,1,2,5,0,0,75,HIGH,13.635,100.71,24421.888660939774,True Town BMA 7 - ม.บางมด และสวนหมาก
,,,13645-100495,926.0,769.0,104.0,53.0,31,1,3,27,89,8,1,2,5,0,0,31,HIGH,13.645,100.495,1550.9717451913864,True Town BMA 7 - ม.บางมด และสวนหมาก
,,,13650-100680,1418.0,0.0,1366.0,52.0,50,0,34,16,272,16,0,14,2,0,0,50,HIGH,13.65,100.68,21084.31014251208,True Town BMA 7 - ม.บางมด และสวนหมาก
BMA II (South West),B074-BKK,True Town BMA 7 - ม.บางมด และสวนหมาก,13655-100485,2839.0,2721.0,0.0,118.0,22,3,0,19,113,8,3,0,5,0,22,22,HIGH,13.655,100.485,0,True Town BMA 7 - ม.บางมด และสวนหมาก
BMA II (South West),B074-BKK,True Town BMA 7 - ม.บางมด และสวนหมาก,13655-100495,649.0,0.0,89.0,560.0,74,0,3,71,137,20,0,1,19,0,74,74,HIGH,13.655,100.495,0,True Town BMA 7 - ม.บางมด และสวนหมาก
,,,13655-100520,1446.0,794.0,501.0,151.0,55,1,11,43,114,24,1,9,14,0,0,55,HIGH,13.655,100.52,2702.147583066857,True Town BMA 7 - ม.บางมด และสวนหมาก
,,,13655-100595,1722.0,1400.0,261.0,61.0,80,3,13,64,174,15,3,7,5,0,0,80,HIGH,13.655,100.595,10808.590260595234,True Town BMA 7 - ม.บางมด และสวนหมาก
BMA II (South West),B071-BKK,True Town BMA 8 - บางขุนเทียน,13665-100435,3248.0,623.0,1980.0,645.0,93,1,49,43,268,43,1,23,19,1,93,93,HIGH,13.665,100.435,0,True Town BMA 8 - บางขุนเทียน
BMA II (South West),B071-BKK,True Town BMA 8 - บางขุนเทียน,13665-100440,1921.0,1849.0,41.0,31.0,55,4,7,44,149,7,4,1,2,0,55,55,HIGH,13.665,100.44,0,True Town BMA 8 - บางขุนเทียน
,,True Town BMA 27 - ซอยลาซาล,13665-100615,1375.0,1108.0,164.0,103.0,40,2,5,33,89,13,2,1,10,1,40,40,HIGH,13.665,100.615,0,True Town BMA 27 - ซอยลาซาล
,,,13670-100630,2384.0,1629.0,305.0,450.0,27,2,18,7,99,11,2,8,1,0,0,27,HIGH,13.67,100.63,1713.9427355377773,True Town BMA 27 - ซอยลาซาล
,,,13670-100635,1867.0,1484.0,361.0,22.0,34,2,10,22,174,9,2,5,2,0,0,34,HIGH,13.67,100.635,2232.001641173633,True Town BMA 27 - ซอยลาซาล
,,,13675-100635,955.0,734.0,221.0,0.0,20,2,6,12,98,5,2,3,0,1,0,20,HIGH,13.675,100.635,2430.974668193435,True Town BMA 27 - ซอยลาซาล
BMA IV (South East),B042-BKK,True Town BMA 28 - ม.รามคำแหง (วิทยาเขตบางนา ราม2),13675-100680,2279.0,1934.0,0.0,345.0,75,5,0,70,105,23,5,0,18,0,75,75,HIGH,13.675,100.68,0,True Town BMA 28 - ม.รามคำแหง (วิทยาเขตบางนา ราม2)
,,,13680-100610,1670.0,1391.0,172.0,107.0,34,3,5,26,134,11,3,2,6,0,0,34,HIGH,13.68,100.61,7585.705427123562,True Town BMA 28 - ม.รามคำแหง (วิทยาเขตบางนา ราม2)
,,,13680-100630,1015.0,727.0,0.0,288.0,77,2,4,71,89,16,2,0,14,1,0,77,HIGH,13.68,100.63,5432.322803503235,True Town BMA 28 - ม.รามคำแหง (วิทยาเขตบางนา ราม2)
,,,13680-100635,1310.0,1277.0,25.0,8.0,27,3,4,20,85,5,3,1,1,0,0,27,HIGH,13.68,100.635,4895.096885616143,True Town BMA 28 - ม.รามคำแหง (วิทยาเขตบางนา ราม2)
,,,13685-100490,2101.0,1515.0,438.0,148.0,22,3,7,12,98,10,3,5,2,1,0,22,HIGH,13.685,100.49,7292.18883109474,True Town BMA 12 - มหาวิทยาลัยสยาม
,,,13685-100610,4304.0,2398.0,923.0,983.0,53,4,11,38,144,22,4,4,14,1,0,53,HIGH,13.685,100.61,7646.542801323185,True Town BMA 28 - ม.รามคำแหง (วิทยาเขตบางนา ราม2)
,,,13685-100615,916.0,669.0,150.0,97.0,18,2,1,15,85,5,2,1,2,1,0,18,HIGH,13.685,100.615,7112.352668836573,True Town BMA 28 - ม.รามคำแหง (วิทยาเขตบางนา ราม2)
,,,13685-101065,2130.0,2116.0,4.0,10.0,28,3,2,23,90,4,3,0,1,1,0,28,HIGH,13.685,101.065,41623.517806068616,True Town BMA 28 - ม.รามคำแหง (วิทยาเขตบางนา ราม2)
,,,13690-100610,5823.0,4277.0,1178.0,368.0,34,2,8,24,109,10,2,4,4,0,0,34,HIGH,13.69,100.61,7746.92908817923,True Town BMA 28 - ม.รามคำแหง (วิทยาเขตบางนา ราม2)
,,,13690-100645,2584.0,1468.0,1072.0,44.0,56,2,33,21,358,20,2,15,3,0,0,56,HIGH,13.69,100.645,4134.188607248664,True Town BMA 28 - ม.รามคำแหง (วิทยาเขตบางนา ราม2)
,,,13695-100480,918.0,893.0,0.0,25.0,39,2,1,36,122,4,2,0,2,2,0,39,HIGH,13.695,100.48,5843.186742125685,True Town BMA 12 - มหาวิทยาลัยสยาม
,,,13695-100645,4033.0,2173.0,1674.0,186.0,155,4,63,88,345,37,4,26,7,0,0,155,HIGH,13.695,100.645,4388.202893574906,True Town BMA 28 - ม.รามคำแหง (วิทยาเขตบางนา ราม2)
,,,13700-100535,2737.0,579.0,2158.0,0.0,61,1,53,7,242,29,1,28,0,0,0,61,HIGH,13.7,100.535,11468.501226941344,True Town BMA 12 - มหาวิทยาลัยสยาม
,,,13700-100605,3407.0,3185.0,52.0,170.0,52,6,6,40,92,18,6,3,9,1,0,52,HIGH,13.7,100.605,8569.062280521617,True Town BMA 28 - ม.รามคำแหง (วิทยาเขตบางนา ราม2)
,,,13705-100500,1009.0,975.0,34.0,0.0,50,3,36,11,136,4,2,2,0,0,0,50,HIGH,13.705,100.5,7645.5878759032175,True Town BMA 12 - มหาวิทยาลัยสยาม
,,,13705-100535,2290.0,1192.0,149.0,949.0,140,3,19,118,86,22,3,2,17,2,0,140,HIGH,13.705,100.535,11400.757467330637,True Town BMA 12 - มหาวิทยาลัยสยาม
,,,13705-100600,3060.0,2929.0,129.0,2.0,32,5,7,20,168,8,5,3,0,2,0,32,HIGH,13.705,100.6,9267.202779846724,True Town BMA 28 - ม.รามคำแหง (วิทยาเขตบางนา ราม2)
,,,13710-100505,5577.0,1353.0,4200.0,24.0,41,3,31,7,107,28,3,24,1,0,0,41,HIGH,13.71,100.505,8123.522007257545,True Town BMA 12 - มหาวิทยาลัยสยาม
,,,13710-100520,1843.0,1035.0,670.0,138.0,30,2,3,25,87,10,2,3,5,0,0,30,HIGH,13.71,100.52,9741.243501100707,True Town BMA 12 - มหาวิทยาลัยสยาม
,,,13710-100525,1627.0,1399.0,0.0,228.0,26,3,2,21,181,9,3,0,6,1,0,26,HIGH,13.71,100.525,10280.705977910517,True Town BMA 12 - มหาวิทยาลัยสยาม
,,,13710-100540,989.0,987.0,0.0,2.0,6,2,2,2,100,2,2,0,0,0,0,6,HIGH,13.71,100.54,11899.54801381467,True Town BMA 12 - มหาวิทยาลัยสยาม
,,,13710-100600,1334.0,1130.0,143.0,61.0,33,3,10,20,149,12,3,3,6,0,0,33,HIGH,13.71,100.6,9481.581210303577,True Town BMA 28 - ม.รามคำแหง (วิทยาเขตบางนา ราม2)
,,,13715-100405,2428.0,783.0,1621.0,24.0,46,1,34,11,259,19,1,17,1,0,0,46,HIGH,13.715,100.405,2701.4586534161026,True Town BMA 12 - มหาวิทยาลัยสยาม
BMA II (South West),B082-BKK,True Town BMA 12 - มหาวิทยาลัยสยาม,13715-100430,9386.0,2092.0,7244.0,50.0,125,5,83,37,175,66,5,58,3,1,125,125,HIGH,13.715,100.43,0,True Town BMA 12 - มหาวิทยาลัยสยาม
,,,13715-100470,618.0,526.0,22.0,70.0,14,1,5,8,86,6,1,2,3,2,0,14,HIGH,13.715,100.47,4322.333842455408,True Town BMA 12 - มหาวิทยาลัยสยาม
,,,13715-100475,3249.0,1085.0,802.0,1362.0,72,2,18,52,143,23,2,12,9,0,0,72,HIGH,13.715,100.475,4862.625571288027,True Town BMA 12 - มหาวิทยาลัยสยาม
,,,13715-100485,2753.0,2700.0,29.0,24.0,22,7,2,13,106,11,7,2,2,1,0,22,HIGH,13.715,100.485,5943.209027334225,True Town BMA 12 - มหาวิทยาลัยสยาม
,,,13715-100510,1842.0,1420.0,406.0,16.0,33,3,10,20,121,9,3,4,2,0,0,33,HIGH,13.715,100.51,5969.110744836319,True Town BMA 32 - ถนนพระราม 4 ใกล้ Bic C
,,,13715-100515,3152.0,3086.0,0.0,66.0,15,6,1,8,132,8,6,0,2,3,0,15,HIGH,13.715,100.515,5431.408239269536,True Town BMA 32 - ถนนพระราม 4 ใกล้ Bic C
,,,13715-100525,1295.0,1245.0,0.0,50.0,26,3,1,22,182,7,3,0,4,2,0,26,HIGH,13.715,100.525,4357.920811766893,True Town BMA 32 - ถนนพระราม 4 ใกล้ Bic C
,,,13715-100580,4019.0,4019.0,0.0,0.0,30,5,17,8,88,5,5,0,0,2,0,30,HIGH,13.715,100.58,1713.6167379354654,True Town BMA 32 - ถนนพระราม 4 ใกล้ Bic C
,,,13715-100590,867.0,851.0,16.0,0.0,13,1,7,5,164,2,1,1,0,1,0,13,HIGH,13.715,100.59,2758.083629295681,True Town BMA 32 - ถนนพระราม 4 ใกล้ Bic C
,,,13715-100595,3238.0,3231.0,0.0,7.0,29,7,2,20,103,7,7,0,0,3,0,29,HIGH,13.715,100.595,3289.076405768585,True Town BMA 32 - ถนนพระราม 4 ใกล้ Bic C
,,,13720-100505,912.0,896.0,7.0,9.0,18,2,9,7,128,4,2,1,1,1,0,18,HIGH,13.72,100.505,6483.362647534187,True Town BMA 32 - ถนนพระราม 4 ใกล้ Bic C
,,,13720-100515,1328.0,1295.0,17.0,16.0,19,2,5,12,106,4,2,1,1,2,0,19,HIGH,13.72,100.515,5402.80221052062,True Town BMA 32 - ถนนพระราม 4 ใกล้ Bic C
,,,13720-100535,2404.0,2289.0,0.0,115.0,43,4,4,35,127,11,4,0,7,1,0,43,HIGH,13.72,100.535,3241.681330016971,True Town BMA 32 - ถนนพระราม 4 ใกล้ Bic C
BMA V (Central),B113-BKK,True Town BMA 32 - ถนนพระราม 4 ใกล้ Bic C,13720-100565,708.0,124.0,465.0,119.0,39,1,17,21,187,14,1,9,4,0,39,39,HIGH,13.72,100.565,0,True Town BMA 32 - ถนนพระราม 4 ใกล้ Bic C
BMA V (Central),B113-BKK,True Town BMA 32 - ถนนพระราม 4 ใกล้ Bic C,13720-100570,3144.0,2173.0,91.0,880.0,98,4,5,89,158,19,4,1,14,0,98,98,HIGH,13.72,100.57,0,True Town BMA 32 - ถนนพระราม 4 ใกล้ Bic C
BMA II (South West),B073-BKK,True Town BMA 9 - ม.ราชภัฏบ้านสมเด็จ,13725-100475,1650.0,1091.0,0.0,559.0,64,3,1,60,225,37,3,0,34,1,64,64,HIGH,13.725,100.475,0,True Town BMA 9 - ม.ราชภัฏบ้านสมเด็จ
,,,13725-100490,3185.0,3082.0,59.0,44.0,28,6,5,17,102,9,6,1,2,1,0,28,HIGH,13.725,100.49,1620.806126723067,True Town BMA 9 - ม.ราชภัฏบ้านสมเด็จ
,,,13725-100495,3386.0,3249.0,0.0,137.0,33,7,8,18,95,10,6,0,4,0,0,33,HIGH,13.725,100.495,2161.074835361917,True Town BMA 9 - ม.ราชภัฏบ้านสมเด็จ
,,,13725-100505,2830.0,995.0,1833.0,2.0,148,2,142,4,87,32,2,30,0,0,0,148,HIGH,13.725,100.505,2161.074835361917,True Town BMA 37 - ถนนสีลม
,,,13725-100510,627.0,534.0,22.0,71.0,60,1,12,47,108,6,1,1,4,0,0,60,HIGH,13.725,100.51,1620.806126723067,True Town BMA 37 - ถนนสีลม
,,,13725-100515,2033.0,2013.0,0.0,20.0,35,3,9,23,299,5,3,0,2,3,0,35,HIGH,13.725,100.515,1080.5374179118833,True Town BMA 37 - ถนนสีลม
,,,13725-100520,4408.0,3858.0,127.0,423.0,59,8,9,42,352,15,7,2,6,3,0,59,HIGH,13.725,100.52,540.2687089862678,True Town BMA 37 - ถนนสีลม
BMA V (Central),B091-BKK,True Town BMA 37 - ถนนสีลม,13725-100525,7909.0,6276.0,1287.0,346.0,46,7,29,10,216,27,7,13,7,2,46,46,HIGH,13.725,100.525,0,True Town BMA 37 - ถนนสีลม
,,,13725-100530,9898.0,6721.0,333.0,2844.0,146,8,23,115,496,53,8,4,41,0,0,146,HIGH,13.725,100.53,540.2687089848931,True Town BMA 37 - ถนนสีลม
,,,13725-100535,4672.0,3054.0,69.0,1549.0,30,4,9,17,134,15,4,2,9,0,0,30,HIGH,13.725,100.535,1080.5374179105086,True Town BMA 37 - ถนนสีลม
,,,13725-100545,2117.0,2087.0,20.0,10.0,22,5,6,11,152,6,4,1,1,0,0,22,HIGH,13.725,100.545,2161.0748353605422,True Town BMA 32 - ถนนพระราม 4 ใกล้ Bic C
,,,13725-100555,1711.0,1584.0,0.0,127.0,49,2,3,44,86,7,2,0,5,1,0,49,HIGH,13.725,100.555,1080.5374179118833,True Town BMA 32 - ถนนพระราม 4 ใกล้ Bic C
,,,13725-100560,1654.0,1652.0,0.0,2.0,14,3,1,10,84,3,3,0,0,1,0,14,HIGH,13.725,100.56,540.2687089848931,True Town BMA 32 - ถนนพระราม 4 ใกล้ Bic C
BMA V (Central),B113-BKK,True Town BMA 32 - ถนนพระราม 4 ใกล้ Bic C,13725-100565,2210.0,1878.0,252.0,80.0,36,5,24,7,259,14,5,6,3,0,36,36,HIGH,13.725,100.565,0,True Town BMA 32 - ถนนพระราม 4 ใกล้ Bic C
,,,13725-100570,2075.0,1679.0,393.0,3.0,77,4,69,4,128,16,3,13,0,2,0,77,HIGH,13.725,100.57,540.2687089835185,True Town BMA 32 - ถนนพระราม 4 ใกล้ Bic C
,,,13725-100575,3165.0,3152.0,13.0,0.0,11,5,5,1,184,7,5,2,0,0,0,11,HIGH,13.725,100.575,1080.5374179118833,True Town BMA 32 - ถนนพระราม 4 ใกล้ Bic C
,,,13725-100580,2646.0,2405.0,236.0,5.0,27,4,19,4,209,11,4,6,1,1,0,27,HIGH,13.725,100.58,1620.806126723067,True Town BMA 32 - ถนนพระราม 4 ใกล้ Bic C
,,,13725-100725,1190.0,783.0,314.0,93.0,58,1,17,40,96,9,1,6,2,0,0,58,HIGH,13.725,100.725,17288.598371597564,True Town BMA 32 - ถนนพระราม 4 ใกล้ Bic C
,,,13725-100775,1511.0,1455.0,0.0,56.0,57,2,2,53,117,5,2,0,3,0,0,57,HIGH,13.725,100.775,22691.285062785013,True Town BMA 32 - ถนนพระราม 4 ใกล้ Bic C
,,,13725-100780,3444.0,3370.0,0.0,74.0,60,3,0,57,101,11,3,0,8,0,0,60,HIGH,13.725,100.78,23231.55371948338,True Town BMA 32 - ถนนพระราม 4 ใกล้ Bic C
,,,13730-100505,4129.0,3764.0,315.0,50.0,68,3,56,9,124,17,3,12,2,2,0,68,HIGH,13.73,100.505,2161.0287668163637,True Town BMA 37 - ถนนสีลม
,,,13730-100510,1525.0,642.0,877.0,6.0,32,2,23,7,160,10,2,8,0,1,0,32,HIGH,13.73,100.51,1620.771575314043,True Town BMA 37 - ถนนสีลม
,,,13730-100515,2248.0,2242.0,0.0,6.0,10,5,2,3,113,6,5,0,1,1,0,10,HIGH,13.73,100.515,1080.5143836392672,True Town BMA 37 - ถนนสีลม
,,,13730-100520,3655.0,2938.0,0.0,717.0,61,4,8,49,140,15,4,0,11,0,0,61,HIGH,13.73,100.52,540.2571918499799,True Town BMA 37 - ถนนสีลม
BMA V (Central),B091-BKK,True Town BMA 37 - ถนนสีลม,13730-100525,7314.0,4396.0,669.0,2249.0,137,7,20,110,236,51,7,6,38,0,137,137,HIGH,13.73,100.525,0,True Town BMA 37 - ถนนสีลม
BMA V (Central),B091-BKK,True Town BMA 37 - ถนนสีลม,13730-100530,15563.0,10449.0,2601.0,2513.0,172,11,54,107,626,67,10,21,36,0,172,172,HIGH,13.73,100.53,0,True Town BMA 37 - ถนนสีลม
BMA V (Central),B091-BKK,True Town BMA 37 - ถนนสีลม,13730-100535,7053.0,2695.0,940.0,3418.0,138,3,24,111,432,46,3,10,33,1,138,138,HIGH,13.73,100.535,0,True Town BMA 37 - ถนนสีลม
,,,13730-100540,2137.0,1529.0,83.0,525.0,37,2,9,26,168,13,2,3,8,0,0,37,HIGH,13.73,100.54,540.2571918499799,True Town BMA 37 - ถนนสีลม
,,,13730-100565,1715.0,1676.0,39.0,0.0,22,4,8,10,96,5,4,1,0,1,0,22,HIGH,13.73,100.565,3241.5431490649958,True Town BMA 37 - ถนนสีลม
,,,13730-100655,1118.0,1114.0,0.0,4.0,9,2,1,6,92,2,2,0,0,0,0,9,HIGH,13.73,100.655,12966.172471098596,True Town BMA 37 - ถนนสีลม
BMA II (South West),B073-BKK,True Town BMA 9 - ม.ราชภัฏบ้านสมเด็จ,13735-100490,3123.0,2543.0,249.0,331.0,41,4,5,32,165,15,4,3,8,1,41,41,HIGH,13.735,100.49,0,True Town BMA 9 - ม.ราชภัฏบ้านสมเด็จ
,,,13735-100500,1583.0,1567.0,0.0,16.0,8,5,1,2,149,6,5,0,1,3,0,8,HIGH,13.735,100.5,1080.4913411394384,True Town BMA 9 - ม.ราชภัฏบ้านสมเด็จ
,,,13735-100510,2107.0,1592.0,19.0,496.0,59,3,12,44,194,25,3,1,21,0,0,59,HIGH,13.735,100.51,2160.9826818136353,True Town BMA 9 - ม.ราชภัฏบ้านสมเด็จ
,,,13735-100520,5259.0,5215.0,32.0,12.0,29,7,14,8,159,10,7,2,1,0,0,29,HIGH,13.735,100.52,3241.474021558726,True Town BMA 9 - ม.ราชภัฏบ้านสมเด็จ
,,,13735-100525,7194.0,5759.0,1036.0,399.0,84,7,38,39,268,26,3,11,12,0,0,84,HIGH,13.735,100.525,3781.719690940474,True Town BMA 9 - ม.ราชภัฏบ้านสมเด็จ
,,,13735-100530,2255.0,1451.0,701.0,103.0,50,2,31,17,268,9,2,4,3,0,0,50,HIGH,13.735,100.53,3288.80397496648,True Town BMA 36 - ย่านอโศก ตลาดรวมทรัพย์
,,,13735-100535,9636.0,9070.0,544.0,22.0,27,7,10,10,162,12,7,4,1,0,0,27,HIGH,13.735,100.535,2757.858018425805,True Town BMA 36 - ย่านอโศก ตลาดรวมทรัพย์
,,,13735-100560,3644.0,2496.0,348.0,800.0,71,5,26,40,400,24,4,5,15,0,0,71,HIGH,13.735,100.56,556.1491661481354,True Town BMA 36 - ย่านอโศก ตลาดรวมทรัพย์
,,,13735-100565,3614.0,2680.0,933.0,1.0,137,8,112,17,626,21,6,15,0,0,0,137,HIGH,13.735,100.565,775.345763804243,True Town BMA 36 - ย่านอโศก ตลาดรวมทรัพย์
,,,13735-100570,1080.0,889.0,142.0,49.0,9,1,5,3,160,4,1,2,1,0,0,9,HIGH,13.735,100.57,1215.2113102858398,True Town BMA 36 - ย่านอโศก ตลาดรวมทรัพย์
,,,13735-100575,1277.0,1250.0,20.0,7.0,10,2,4,4,148,4,2,1,1,1,0,10,HIGH,13.735,100.575,1713.486014017178,True Town BMA 36 - ย่านอโศก ตลาดรวมทรัพย์
,,,13735-100580,3022.0,2573.0,449.0,0.0,44,6,34,4,475,13,6,7,0,0,0,44,HIGH,13.735,100.58,2231.378145355714,True Town BMA 36 - ย่านอโศก ตลาดรวมทรัพย์
,,,13735-100585,811.0,795.0,0.0,16.0,12,1,3,8,172,2,1,0,1,0,0,12,HIGH,13.735,100.585,2757.8580184231123,True Town BMA 36 - ย่านอโศก ตลาดรวมทรัพย์
,,,13735-100595,1318.0,1259.0,35.0,24.0,17,4,3,10,104,6,4,1,1,1,0,17,HIGH,13.735,100.595,3822.3553777865877,True Town BMA 36 - ย่านอโศก ตลาดรวมทรัพย์
,,,13740-100515,2939.0,2905.0,28.0,6.0,25,5,14,6,122,8,5,2,1,0,0,25,HIGH,13.74,100.515,2757.858018425805,True Town BMA 9 - ม.ราชภัฏบ้านสมเด็จ
,,,13740-100520,739.0,673.0,0.0,66.0,36,2,1,33,85,9,2,0,7,1,0,36,HIGH,13.74,100.52,3288.80397496648,True Town BMA 9 - ม.ราชภัฏบ้านสมเด็จ
,,,13740-100545,2454.0,1380.0,816.0,258.0,181,2,55,124,155,33,2,20,11,1,0,181,HIGH,13.74,100.545,1620.702435467614,True Town BMA 36 - ย่านอโศก ตลาดรวมทรัพย์
,,,13740-100555,1468.0,701.0,750.0,17.0,42,3,36,3,199,20,3,16,1,1,0,42,HIGH,13.74,100.555,540.2341452332358,True Town BMA 36 - ย่านอโศก ตลาดรวมทรัพย์
BMA V (Central),B112-BKK,True Town BMA 36 - ย่านอโศก ตลาดรวมทรัพย์,13740-100560,2742.0,1821.0,921.0,0.0,83,4,66,13,478,17,3,14,0,0,83,83,HIGH,13.74,100.56,0,True Town BMA 36 - ย่านอโศก ตลาดรวมทรัพย์
,,,13740-100585,1375.0,1303.0,54.0,18.0,9,2,4,3,103,4,2,1,1,0,0,9,HIGH,13.74,100.585,2701.170725004335,True Town BMA 36 - ย่านอโศก ตลาดรวมทรัพย์
,,,13740-100615,2370.0,2229.0,126.0,15.0,12,5,2,5,83,7,5,1,1,0,0,12,HIGH,13.74,100.615,5942.575584800426,True Town BMA 36 - ย่านอโศก ตลาดรวมทรัพย์
,,,13745-100485,741.0,727.0,0.0,14.0,25,2,3,20,95,3,2,0,1,2,0,25,HIGH,13.745,100.485,1620.6678470321099,True Town BMA 34 - เยาวราช สำเพ็ง
,,,13745-100495,4073.0,4049.0,3.0,21.0,33,8,11,14,103,10,8,0,2,6,0,33,HIGH,13.745,100.495,540.2226157543299,True Town BMA 34 - เยาวราช สำเพ็ง
BMA V (Central),B093-BKK,True Town BMA 34 - เยาวราช สำเพ็ง,13745-100500,4026.0,3607.0,236.0,183.0,63,6,7,50,226,17,6,2,9,1,63,63,HIGH,13.745,100.5,0,True Town BMA 34 - เยาวราช สำเพ็ง
BMA V (Central),B093-BKK,True Town BMA 34 - เยาวราช สำเพ็ง,13745-100505,4259.0,4081.0,0.0,178.0,51,6,10,35,392,14,6,0,8,1,51,51,HIGH,13.745,100.505,0,True Town BMA 34 - เยาวราช สำเพ็ง
BMA V (Central),B093-BKK,True Town BMA 34 - เยาวราช สำเพ็ง,13745-100510,4982.0,4640.0,8.0,334.0,44,8,10,26,308,18,8,1,9,1,44,44,HIGH,13.745,100.51,0,True Town BMA 34 - เยาวราช สำเพ็ง
,,,13745-100520,2869.0,2661.0,150.0,58.0,60,3,30,27,350,8,3,3,2,1,0,60,HIGH,13.745,100.52,1080.4452314492216,True Town BMA 34 - เยาวราช สำเพ็ง
,,,13745-100525,12214.0,1799.0,9887.0,528.0,169,2,152,15,112,101,2,95,4,0,0,169,HIGH,13.745,100.525,540.2226157543299,True Town BMA 33 - สยามแสควร์
BMA V (Central),B101-BKK,True Town BMA 33 - สยามแสควร์,13745-100530,9385.0,5958.0,2850.0,577.0,253,4,91,158,563,45,4,22,19,2,253,253,HIGH,13.745,100.53,0,True Town BMA 33 - สยามแสควร์
BMA V (Central),B101-BKK,True Town BMA 33 - สยามแสควร์,13745-100535,20329.0,4198.0,15910.0,221.0,882,4,772,106,191,259,4,248,7,0,882,882,HIGH,13.745,100.535,0,True Town BMA 33 - สยามแสควร์
,,,13745-100540,7625.0,6883.0,433.0,309.0,102,9,43,50,549,24,9,7,8,1,0,102,HIGH,13.745,100.54,540.2226157557044,True Town BMA 33 - สยามแสควร์
,,,13745-100545,3744.0,2944.0,723.0,77.0,51,3,27,21,333,17,3,10,4,1,0,51,HIGH,13.745,100.545,1080.4452314519706,True Town BMA 33 - สยามแสควร์
,,,13745-100550,3340.0,2923.0,124.0,293.0,63,9,28,26,282,22,9,5,8,0,0,63,HIGH,13.745,100.55,1080.445231450596,True Town BMA 36 - ย่านอโศก ตลาดรวมทรัพย์
,,,13745-100555,6129.0,5767.0,109.0,253.0,64,11,16,37,273,21,11,5,5,1,0,64,HIGH,13.745,100.555,540.2226157543299,True Town BMA 36 - ย่านอโศก ตลาดรวมทรัพย์
BMA V (Central),B112-BKK,True Town BMA 36 - ย่านอโศก ตลาดรวมทรัพย์,13745-100560,13453.0,6526.0,1114.0,5813.0,327,9,78,240,405,126,8,23,95,0,327,327,HIGH,13.745,100.56,0,True Town BMA 36 - ย่านอโศก ตลาดรวมทรัพย์
,,,13745-100565,1944.0,1679.0,0.0,265.0,19,2,0,17,103,9,2,0,7,0,0,19,HIGH,13.745,100.565,540.2226157543299,True Town BMA 36 - ย่านอโศก ตลาดรวมทรัพย์
,,,13745-100625,2109.0,1990.0,86.0,33.0,23,4,10,9,124,6,4,1,1,0,0,23,HIGH,13.745,100.625,7022.89398367111,True Town BMA 36 - ย่านอโศก ตลาดรวมทรัพย์
,,,13750-100500,824.0,653.0,17.0,154.0,36,1,7,28,129,9,1,1,7,0,0,36,HIGH,13.75,100.5,6482.532969319013,True Town BMA 36 - ย่านอโศก ตลาดรวมทรัพย์
,,,13750-100505,2420.0,2366.0,49.0,5.0,25,5,5,15,92,6,5,1,0,0,0,25,HIGH,13.75,100.505,5942.321890993849,True Town BMA 36 - ย่านอโศก ตลาดรวมทรัพย์
,,,13750-100510,2217.0,2069.0,0.0,148.0,31,3,0,28,98,15,3,0,12,2,0,31,HIGH,13.75,100.51,5402.110812026795,True Town BMA 36 - ย่านอโศก ตลาดรวมทรัพย์
,,,13750-100520,1823.0,1235.0,442.0,146.0,31,1,19,11,168,12,1,5,6,0,0,31,HIGH,13.75,100.52,4321.688652411797,True Town BMA 36 - ย่านอโศก ตลาดรวมทรัพย์
,,,13750-100525,2317.0,2107.0,181.0,29.0,36,3,19,14,87,9,3,5,1,1,0,36,HIGH,13.75,100.525,3781.4775718759374,True Town BMA 36 - ย่านอโศก ตลาดรวมทรัพย์
,,,13750-100530,4885.0,2480.0,2377.0,28.0,120,1,89,30,487,29,1,26,2,0,0,120,HIGH,13.75,100.53,3241.2664909347254,True Town BMA 36 - ย่านอโศก ตลาดรวมทรัพย์
,,,13750-100535,5622.0,1417.0,4189.0,16.0,137,1,129,7,627,38,1,36,1,0,0,137,HIGH,13.75,100.535,2701.0554096462643,True Town BMA 36 - ย่านอโศก ตลาดรวมทรัพย์
,,,13750-100540,3029.0,2744.0,269.0,16.0,59,4,37,18,288,14,4,7,3,0,0,59,HIGH,13.75,100.54,2160.844328064535,True Town BMA 36 - ย่านอโศก ตลาดรวมทรัพย์
BMA V (Central),B112-BKK,True Town BMA 36 - ย่านอโศก ตลาดรวมทรัพย์,13750-100560,2931.0,2056.0,615.0,260.0,29,2,12,15,140,16,2,7,7,2,29,29,HIGH,13.75,100.56,0,True Town BMA 36 - ย่านอโศก ตลาดรวมทรัพย์
,,,13755-100475,2918.0,2374.0,542.0,2.0,26,6,7,13,104,9,6,3,0,1,0,26,HIGH,13.755,100.475,1080.3990888508847,True Town BMA 13 - ศิริราช วังหลัง
,,,13755-100480,2305.0,2220.0,77.0,8.0,26,2,18,6,85,5,2,2,1,0,0,26,HIGH,13.755,100.48,540.1995444531398,True Town BMA 13 - ศิริราช วังหลัง
BMA II (South West),B083-BKK,True Town BMA 13 - ศิริราช วังหลัง,13755-100485,2211.0,662.0,1035.0,514.0,116,1,12,103,224,27,1,5,21,3,116,116,HIGH,13.755,100.485,0,True Town BMA 13 - ศิริราช วังหลัง
,,,13755-100495,3832.0,3544.0,147.0,141.0,37,6,6,25,253,16,6,2,8,1,0,37,HIGH,13.755,100.495,1080.399088852259,True Town BMA 13 - ศิริราช วังหลัง
,,,13755-100500,3158.0,3042.0,6.0,110.0,56,5,3,48,125,14,5,1,8,4,0,56,HIGH,13.755,100.5,1620.598633132341,True Town BMA 13 - ศิริราช วังหลัง
,,,13755-100525,2583.0,2074.0,492.0,17.0,31,5,13,13,104,10,5,4,1,2,0,31,HIGH,13.755,100.525,4321.596350753387,True Town BMA 13 - ศิริราช วังหลัง
,,,13755-100530,4498.0,4333.0,87.0,78.0,37,7,15,15,240,14,7,3,4,0,0,37,HIGH,13.755,100.53,4861.795893114714,True Town BMA 13 - ศิริราช วังหลัง
,,,13755-100535,6285.0,5877.0,396.0,12.0,447,12,373,62,260,38,12,25,1,3,0,447,HIGH,13.755,100.535,5401.99543495137,True Town BMA 13 - ศิริราช วังหลัง
,,,13755-100540,2709.0,2649.0,30.0,30.0,31,8,10,13,188,11,8,2,1,0,0,31,HIGH,13.755,100.54,5942.1949762093345,True Town BMA 13 - ศิริราช วังหลัง
,,,13755-100545,1107.0,1034.0,0.0,73.0,7,2,2,3,86,3,2,0,1,2,0,7,HIGH,13.755,100.545,6482.394516826338,True Town BMA 13 - ศิริราช วังหลัง
,,,13755-100570,3129.0,2525.0,84.0,520.0,91,3,11,77,167,19,3,1,15,0,0,91,HIGH,13.755,100.57,9183.392208281168,True Town BMA 13 - ศิริราช วังหลัง
,,,13755-100575,1875.0,1690.0,185.0,0.0,11,3,6,2,101,5,3,2,0,0,0,11,HIGH,13.755,100.575,9723.591743841009,True Town BMA 13 - ศิริราช วังหลัง
,,,13755-100610,2397.0,2157.0,198.0,42.0,42,5,6,31,140,9,5,2,2,1,0,42,HIGH,13.755,100.61,13504.988460189565,True Town BMA 13 - ศิริราช วังหลัง
,,,13755-100620,2890.0,2734.0,31.0,125.0,110,5,4,101,146,13,5,1,7,1,0,110,HIGH,13.755,100.62,14585.387509793165,True Town BMA 13 - ศิริราช วังหลัง
,,,13755-100625,2134.0,1923.0,66.0,145.0,72,4,12,56,130,11,4,1,6,0,0,72,HIGH,13.755,100.625,15125.587032269199,True Town BMA 13 - ศิริราช วังหลัง
BMA II (South West),B083-BKK,True Town BMA 13 - ศิริราช วังหลัง,13760-100480,3127.0,2556.0,449.0,122.0,42,3,20,19,141,20,3,15,2,1,42,42,HIGH,13.76,100.48,0,True Town BMA 13 - ศิริราช วังหลัง
BMA II (South West),B083-BKK,True Town BMA 13 - ศิริราช วังหลัง,13760-100485,7950.0,7049.0,252.0,649.0,87,6,7,74,280,20,6,1,13,0,87,87,HIGH,13.76,100.485,0,True Town BMA 13 - ศิริราช วังหลัง
,,,13760-100495,1012.0,939.0,72.0,1.0,21,2,12,7,183,4,2,2,0,1,0,21,HIGH,13.76,100.495,1080.376005210751,True Town BMA 13 - ศิริราช วังหลัง
,,,13760-100500,1430.0,1169.0,6.0,255.0,50,3,4,43,194,8,2,1,5,1,0,50,HIGH,13.76,100.5,1620.5640076699788,True Town BMA 13 - ศิริราช วังหลัง
,,,13760-100510,1451.0,1196.0,0.0,255.0,38,4,1,33,94,16,3,0,13,0,0,38,HIGH,13.76,100.51,2700.940012006591,True Town BMA 13 - ศิริราช วังหลัง
,,,13760-100530,3197.0,2941.0,169.0,87.0,34,2,10,22,98,13,2,4,7,2,0,34,HIGH,13.76,100.53,4861.692016723283,True Town BMA 13 - ศิริราช วังหลัง
,,,13760-100540,3499.0,3465.0,0.0,34.0,13,6,3,4,94,7,6,0,1,0,0,13,HIGH,13.76,100.54,5942.068016172413,True Town BMA 13 - ศิริราช วังหลัง
,,,13760-100565,7193.0,2123.0,2640.0,2430.0,160,4,55,101,429,47,3,19,25,0,0,160,HIGH,13.76,100.565,8178.636367923541,True Town BMA 26 - ย่านเดอะมอลล์บางกะปิ
,,,13765-100440,1209.0,975.0,70.0,164.0,95,1,4,90,193,11,1,1,9,0,0,95,HIGH,13.765,100.44,4893.347115772823,True Town BMA 13 - ศิริราช วังหลัง
,,,13765-100490,645.0,584.0,56.0,5.0,17,3,5,9,141,3,2,1,0,0,0,17,HIGH,13.765,100.49,775.305576267708,True Town BMA 13 - ศิริราช วังหลัง
,,,13765-100495,2556.0,2548.0,4.0,4.0,49,7,30,12,301,7,7,0,0,1,0,49,HIGH,13.765,100.495,1215.1087446079132,True Town BMA 13 - ศิริราช วังหลัง
,,,13765-100500,1156.0,1023.0,0.0,133.0,23,3,0,20,118,8,3,0,5,1,0,23,HIGH,13.765,100.5,1713.322348105565,True Town BMA 13 - ศิริราช วังหลัง
,,,13765-100535,14754.0,10046.0,553.0,4155.0,288,12,31,245,307,61,12,12,37,0,0,288,HIGH,13.765,100.535,5430.376225429106,True Town BMA 13 - ศิริราช วังหลัง
,,,13765-100540,2644.0,2299.0,323.0,22.0,15,4,5,6,116,8,4,1,3,0,0,15,HIGH,13.765,100.54,5967.9744951346875,True Town BMA 13 - ศิริราช วังหลัง
,,,13765-100555,5446.0,4887.0,527.0,32.0,55,7,13,35,175,11,7,3,1,3,0,55,HIGH,13.765,100.555,7582.9731929526815,True Town BMA 13 - ศิริราช วังหลัง
,,,13765-100560,2331.0,2054.0,0.0,277.0,48,4,8,36,107,15,4,0,11,1,0,48,HIGH,13.765,100.56,8121.797259433505,True Town BMA 13 - ศิริราช วังหลัง
,,,13765-100565,58044.0,9276.0,7415.0,41353.0,3914,8,2780,1126,418,311,8,20,283,1,0,3914,HIGH,13.765,100.565,8121.6244461370925,True Town BMA 26 - ย่านเดอะมอลล์บางกะปิ
,,,13765-100620,2340.0,2211.0,4.0,125.0,107,5,1,101,114,13,5,0,8,1,0,107,HIGH,13.765,100.62,2231.109980109638,True Town BMA 26 - ย่านเดอะมอลล์บางกะปิ
,,,13765-100640,2437.0,2141.0,94.0,202.0,94,4,9,81,87,13,4,3,6,0,0,94,HIGH,13.765,100.64,556.1491661477817,True Town BMA 26 - ย่านเดอะมอลล์บางกะปิ
,,,13770-100500,1587.0,1012.0,0.0,575.0,46,2,1,43,96,12,2,0,10,1,0,46,HIGH,13.77,100.5,1965.5337724804049,True Town BMA 13 - ศิริราช วังหลัง
,,,13770-100535,4670.0,4668.0,0.0,2.0,19,8,1,10,102,8,8,0,0,0,0,19,HIGH,13.77,100.535,5515.0945437092105,True Town BMA 13 - ศิริราช วังหลัง
,,,13770-100560,957.0,721.0,209.0,27.0,29,1,12,16,97,6,1,4,1,1,0,29,HIGH,13.77,100.56,8178.6363679249025,True Town BMA 13 - ศิริราช วังหลัง
,,,13770-100565,1337.0,530.0,748.0,59.0,132,1,33,98,276,12,1,8,3,1,0,132,HIGH,13.77,100.565,8102.473567138222,True Town BMA 26 - ย่านเดอะมอลล์บางกะปิ
,,,13770-100570,2993.0,2397.0,393.0,203.0,32,2,13,17,122,11,2,6,3,0,0,32,HIGH,13.77,100.57,7562.308666606299,True Town BMA 26 - ย่านเดอะมอลล์บางกะปิ
,,,13770-100620,1883.0,1871.0,0.0,12.0,36,3,0,33,102,4,3,0,1,0,0,36,HIGH,13.77,100.62,2160.659626021752,True Town BMA 26 - ย่านเดอะมอลล์บางกะปิ
BMA IV (South East),B041-BKK,True Town BMA 26 - ย่านเดอะมอลล์บางกะปิ,13770-100640,5886.0,2625.0,2322.0,939.0,428,5,72,351,522,79,5,30,44,1,428,428,HIGH,13.77,100.64,0,True Town BMA 26 - ย่านเดอะมอลล์บางกะปิ
,,,13775-100480,4820.0,4501.0,294.0,25.0,27,8,6,13,98,11,8,2,1,0,0,27,HIGH,13.775,100.48,13503.833660640095,True Town BMA 38 - Town in Town
,,,13775-100485,1361.0,1279.0,80.0,2.0,12,2,1,9,83,3,2,1,0,1,0,12,HIGH,13.775,100.485,12963.68032564366,True Town BMA 38 - Town in Town
,,,13775-100505,4148.0,3575.0,0.0,573.0,72,3,2,67,96,6,3,0,3,4,0,72,HIGH,13.775,100.505,10803.066972242252,True Town BMA 38 - Town in Town
,,,13775-100560,2738.0,2658.0,14.0,66.0,64,5,7,52,83,13,5,1,7,2,0,64,HIGH,13.775,100.56,4861.38016540736,True Town BMA 38 - Town in Town
,,,13775-100565,3758.0,3656.0,36.0,66.0,47,8,3,36,86,14,8,1,5,0,0,47,HIGH,13.775,100.565,4321.226815017011,True Town BMA 38 - Town in Town
,,,13775-100570,8756.0,7007.0,1234.0,515.0,62,8,28,26,210,28,8,12,8,2,0,62,HIGH,13.775,100.57,3781.0734641615973,True Town BMA 38 - Town in Town
BMA V (Central),B111-BKK,True Town BMA 38 - Town in Town,13775-100605,2340.0,2192.0,147.0,1.0,14,2,9,3,126,5,2,3,0,0,14,14,HIGH,13.775,100.605,0,True Town BMA 38 - Town in Town
BMA V (Central),B111-BKK,True Town BMA 38 - Town in Town,13775-100610,1191.0,1082.0,93.0,16.0,28,2,7,19,202,6,2,3,1,1,28,28,HIGH,13.775,100.61,0,True Town BMA 38 - Town in Town
,,,13775-100620,2712.0,2544.0,90.0,78.0,65,4,4,57,119,11,4,2,5,2,0,65,HIGH,13.775,100.62,1080.3067049203535,True Town BMA 38 - Town in Town
,,,13775-100635,2234.0,2085.0,120.0,29.0,42,4,4,34,86,8,4,2,2,1,0,42,HIGH,13.775,100.635,2700.7667612819196,True Town BMA 38 - Town in Town
,,,13775-100675,1780.0,1592.0,89.0,99.0,53,3,4,46,110,9,3,1,5,0,0,53,HIGH,13.775,100.675,7021.993561138247,True Town BMA 38 - Town in Town
,,,13780-100475,4824.0,3179.0,1400.0,245.0,110,3,51,56,513,38,3,24,11,0,0,110,HIGH,13.78,100.475,8642.268667751454,True Town BMA 35 - มหาวิทยาลัยหอการค้าไทย
,,,13780-100485,5698.0,5636.0,29.0,33.0,30,5,3,22,105,8,5,1,2,1,0,30,HIGH,13.78,100.485,7561.985092451039,True Town BMA 35 - มหาวิทยาลัยหอการค้าไทย
,,,13780-100505,1965.0,1511.0,27.0,427.0,51,3,5,43,101,11,3,1,7,6,0,51,HIGH,13.78,100.505,5401.417932514954,True Town BMA 35 - มหาวิทยาลัยหอการค้าไทย
,,,13780-100540,1260.0,1106.0,0.0,154.0,50,1,10,39,98,5,1,0,4,1,0,50,HIGH,13.78,100.54,1620.425382408785,True Town BMA 35 - มหาวิทยาลัยหอการค้าไทย
BMA V (Central),B102-BKK,True Town BMA 35 - มหาวิทยาลัยหอการค้าไทย,13780-100555,1255.0,1219.0,0.0,36.0,32,2,7,23,104,4,2,0,2,1,32,32,HIGH,13.78,100.555,0,True Town BMA 35 - มหาวิทยาลัยหอการค้าไทย
BMA V (Central),B102-BKK,True Town BMA 35 - มหาวิทยาลัยหอการค้าไทย,13780-100560,4371.0,4239.0,0.0,132.0,59,5,1,53,143,12,5,0,7,1,59,59,HIGH,13.78,100.56,0,True Town BMA 35 - มหาวิทยาลัยหอการค้าไทย
,,,13780-100565,1755.0,1363.0,384.0,8.0,159,3,135,21,87,9,3,5,1,0,0,159,HIGH,13.78,100.565,540.1417942140554,True Town BMA 35 - มหาวิทยาลัยหอการค้าไทย
,,,13780-100570,3257.0,3068.0,10.0,179.0,33,5,14,14,168,8,5,1,2,0,0,33,HIGH,13.78,100.57,1080.2835883683913,True Town BMA 35 - มหาวิทยาลัยหอการค้าไทย
,,,13780-100580,2003.0,1707.0,272.0,24.0,25,4,3,18,96,8,4,1,3,0,0,25,HIGH,13.78,100.58,1236.506468436655,True Town BMA 39 - ตลาดเมืองไทยภัทร ทรูทาวเวอร์ ไชน่าทาวน์
,,,13785-100510,815.0,687.0,113.0,15.0,19,1,6,12,107,8,1,5,2,6,0,19,HIGH,13.785,100.51,5429.916489297423,True Town BMA 35 - มหาวิทยาลัยหอการค้าไทย
,,,13785-100515,1663.0,1571.0,56.0,36.0,33,2,9,22,105,8,2,3,3,0,0,33,HIGH,13.785,100.515,4892.933861358286,True Town BMA 35 - มหาวิทยาลัยหอการค้าไทย
,,,13785-100540,4453.0,4042.0,0.0,411.0,63,4,15,44,216,20,4,0,16,2,0,63,HIGH,13.785,100.54,2230.975683159346,True Town BMA 35 - มหาวิทยาลัยหอการค้าไทย
,,,13785-100545,6586.0,5782.0,148.0,656.0,72,6,13,53,275,35,6,4,25,0,0,72,HIGH,13.785,100.545,1713.1912065878103,True Town BMA 35 - มหาวิทยาลัยหอการค้าไทย
,,,13785-100565,2552.0,2508.0,0.0,44.0,34,5,5,24,88,7,5,0,2,0,0,34,HIGH,13.785,100.565,775.2733762388422,True Town BMA 35 - มหาวิทยาลัยหอการค้าไทย
,,,13785-100570,3173.0,3055.0,60.0,58.0,26,7,7,12,106,13,7,2,4,1,0,26,HIGH,13.785,100.57,775.2653192895605,True Town BMA 39 - ตลาดเมืองไทยภัทร ทรูทาวเวอร์ ไชน่าทาวน์
,,,13785-100575,3233.0,3212.0,0.0,21.0,22,6,3,13,124,8,6,0,2,0,0,22,HIGH,13.785,100.575,556.1491661479585,True Town BMA 39 - ตลาดเมืองไทยภัทร ทรูทาวเวอร์ ไชน่าทาวน์
,,,13785-100610,2697.0,2534.0,150.0,13.0,33,6,11,16,96,10,6,3,1,0,0,33,HIGH,13.785,100.61,3821.55576489728,True Town BMA 39 - ตลาดเมืองไทยภัทร ทรูทาวเวอร์ ไชน่าทาวน์
,,,13790-100275,613.0,0.0,607.0,6.0,21,0,20,1,107,14,0,13,1,0,0,21,HIGH,13.79,100.275,30807.507558550024,True Town BMA 35 - มหาวิทยาลัยหอการค้าไทย
,,,13790-100545,2668.0,2606.0,46.0,16.0,14,3,5,6,131,7,3,2,2,0,0,14,HIGH,13.79,100.545,1965.419440574483,True Town BMA 35 - มหาวิทยาลัยหอการค้าไทย
,,,13790-100570,1477.0,1162.0,132.0,183.0,92,2,28,62,121,12,2,4,6,0,0,92,HIGH,13.79,100.57,540.1186653247253,True Town BMA 39 - ตลาดเมืองไทยภัทร ทรูทาวเวอร์ ไชน่าทาวน์
BMA V (Central),B103-BKK,True Town BMA 39 - ตลาดเมืองไทยภัทร ทรูทาวเวอร์ ไชน่าทาวน์,13790-100575,3151.0,1976.0,268.0,907.0,65,2,3,60,154,23,2,1,20,0,65,65,HIGH,13.79,100.575,0,True Town BMA 39 - ตลาดเมืองไทยภัทร ทรูทาวเวอร์ ไชน่าทาวน์
,,,13795-100325,781.0,781.0,0.0,0.0,5,3,1,1,94,3,3,0,0,1,0,5,HIGH,13.795,100.325,556.1491661479585,True Town UPC55 - นครปฐม
,,,13795-100540,3790.0,3662.0,1.0,127.0,22,5,2,15,128,10,5,0,5,0,0,22,HIGH,13.795,100.54,3821.4756471219926,True Town BMA 39 - ตลาดเมืองไทยภัทร ทรูทาวเวอร์ ไชน่าทาวน์
,,,13795-100545,5037.0,4639.0,385.0,13.0,34,6,7,21,141,11,6,4,1,0,0,34,HIGH,13.795,100.545,3288.052786619039,True Town BMA 39 - ตลาดเมืองไทยภัทร ทรูทาวเวอร์ ไชน่าทาวน์
,,,13795-100595,1268.0,1130.0,0.0,138.0,43,3,3,37,141,15,3,0,12,1,0,43,HIGH,13.795,100.595,2230.886072486147,True Town BMA 39 - ตลาดเมืองไทยภัทร ทรูทาวเวอร์ ไชน่าทาวน์
,,,13795-100605,785.0,779.0,0.0,6.0,11,2,2,7,84,2,2,0,0,0,0,11,HIGH,13.795,100.605,3288.052786619039,True Town BMA 39 - ตลาดเมืองไทยภัทร ทรูทาวเวอร์ ไชน่าทาวน์
,,,13795-100625,1998.0,1858.0,0.0,140.0,73,3,4,66,99,9,3,0,6,1,0,73,HIGH,13.795,100.625,5429.686375878645,True Town BMA 39 - ตลาดเมืองไทยภัทร ทรูทาวเวอร์ ไชน่าทาวน์
R07-West,Nakhon Pathom,True Town UPC55 - นครปฐม,13800-100325,2759.0,2742.0,0.0,17.0,20,4,0,16,175,6,4,0,2,0,20,20,HIGH,13.8,100.325,0,True Town UPC55 - นครปฐม
,,,13800-100560,968.0,954.0,0.0,14.0,10,2,2,6,94,3,2,0,1,0,0,10,HIGH,13.8,100.56,17900.503430201872,True Town BMA 21 - ตลาดมีนบุรี
,,,13805-100550,3042.0,2610.0,73.0,359.0,224,3,41,180,94,15,3,5,7,0,0,224,HIGH,13.805,100.55,18935.22978432414,True Town BMA 21 - ตลาดมีนบุรี
,,,13805-100595,1660.0,1629.0,0.0,31.0,14,2,0,12,104,4,2,0,2,2,0,14,HIGH,13.805,100.595,14085.866426254623,True Town BMA 21 - ตลาดมีนบุรี
,,,13805-100605,964.0,927.0,0.0,37.0,23,1,2,20,95,2,1,0,1,1,0,23,HIGH,13.805,100.605,13009.374280793603,True Town BMA 21 - ตลาดมีนบุรี
,,,13805-100610,1666.0,0.0,1644.0,22.0,40,0,37,3,161,18,0,17,1,0,0,40,HIGH,13.805,100.61,12471.365066369557,True Town BMA 21 - ตลาดมีนบุรี
,,,13805-100615,1639.0,1416.0,223.0,0.0,21,3,17,1,147,9,3,6,0,0,0,21,HIGH,13.805,100.615,11933.542235857627,True Town BMA 21 - ตลาดมีนบุรี
,,,13810-100520,1534.0,1021.0,503.0,10.0,23,2,17,4,143,10,2,7,1,0,0,23,HIGH,13.81,100.52,21092.621483070365,True Town UPC55 - นครปฐม
,,,13810-100530,1979.0,1659.0,243.0,77.0,30,3,10,17,156,11,3,3,5,1,0,30,HIGH,13.81,100.53,21069.93662006616,True Town BMA 21 - ตลาดมีนบุรี
,,,13810-100555,6984.0,5135.0,75.0,1774.0,91,6,15,70,140,36,6,3,27,0,0,91,HIGH,13.81,100.555,18370.683110696213,True Town BMA 21 - ตลาดมีนบุรี
,,,13810-100560,1420.0,1366.0,51.0,3.0,24,2,5,17,122,3,2,1,0,1,0,24,HIGH,13.81,100.56,17830.871616451637,True Town BMA 21 - ตลาดมีนบุรี
,,,13815-100040,3862.0,3704.0,0.0,158.0,67,5,0,62,142,16,5,0,11,0,0,67,HIGH,13.815,100.04,30829.63253029704,True Town UPC55 - นครปฐม
,,,13815-100045,576.0,527.0,0.0,49.0,20,1,0,19,122,3,1,0,2,1,0,20,HIGH,13.815,100.045,30290.36004480905,True Town UPC55 - นครปฐม
,,,13815-100560,5038.0,4501.0,481.0,56.0,68,5,22,41,282,15,5,5,5,3,0,68,HIGH,13.815,100.56,17822.005096015793,True Town BMA 21 - ตลาดมีนบุรี
,,,13815-100595,1269.0,1260.0,0.0,9.0,30,2,1,27,121,2,2,0,0,1,0,30,HIGH,13.815,100.595,14041.579877542294,True Town BMA 21 - ตลาดมีนบุรี
BMA III (North East),B051-BKK,True Town BMA 21 - ตลาดมีนบุรี,13815-100725,3289.0,3055.0,77.0,157.0,77,8,2,67,128,16,8,1,7,1,77,77,HIGH,13.815,100.725,0,True Town BMA 21 - ตลาดมีนบุรี
,,,13820-100055,968.0,950.0,0.0,18.0,11,2,0,9,88,3,2,0,1,1,0,11,HIGH,13.82,100.055,55691.53405750921,True Town BMA 2 - มหาวิทยาลัยเกษตรศาสตร์ & ตลาดอมรพันธ์
,,,13820-100560,1729.0,0.0,1719.0,10.0,49,0,38,11,346,19,0,18,1,1,0,49,HIGH,13.82,100.56,2983.1249638013214,True Town BMA 2 - มหาวิทยาลัยเกษตรศาสตร์ & ตลาดอมรพันธ์
,,,13820-100590,570.0,567.0,0.0,3.0,16,1,0,15,88,1,1,0,0,2,0,16,HIGH,13.82,100.59,3521.1498222984005,True Town BMA 2 - มหาวิทยาลัยเกษตรศาสตร์ & ตลาดอมรพันธ์
,,,13820-100595,1618.0,1614.0,0.0,4.0,11,2,1,8,84,2,2,0,0,0,0,11,HIGH,13.82,100.595,3875.9633912268237,True Town BMA 2 - มหาวิทยาลัยเกษตรศาสตร์ & ตลาดอมรพันธ์
,,,13825-100580,2280.0,2250.0,12.0,18.0,44,4,1,39,143,7,4,1,2,0,0,44,HIGH,13.825,100.58,2472.911732320706,True Town BMA 2 - มหาวิทยาลัยเกษตรศาสตร์ & ตลาดอมรพันธ์
,,,13825-100590,1141.0,911.0,175.0,55.0,27,1,10,16,155,8,1,5,2,0,0,27,HIGH,13.825,100.59,3100.7545502693033,True Town BMA 2 - มหาวิทยาลัยเกษตรศาสตร์ & ตลาดอมรพันธ์
,,,13825-100675,2281.0,0.0,2267.0,14.0,55,0,46,9,105,26,0,25,1,0,0,55,HIGH,13.825,100.675,5513.847936150093,True Town BMA 21 - ตลาดมีนบุรี
,,,13830-100565,7374.0,1764.0,5584.0,26.0,561,2,547,12,180,175,2,170,3,1,0,561,HIGH,13.83,100.565,1753.6608331886753,True Town BMA 2 - มหาวิทยาลัยเกษตรศาสตร์ & ตลาดอมรพันธ์
,,,13830-100675,771.0,0.0,771.0,0.0,54,0,51,3,233,15,0,15,0,0,0,54,HIGH,13.83,100.675,5652.291772784183,True Town BMA 21 - ตลาดมีนบุรี
,,,13835-100570,1297.0,1229.0,30.0,38.0,22,2,6,14,187,5,2,1,2,1,0,22,HIGH,13.835,100.57,1112.298332295917,True Town BMA 2 - มหาวิทยาลัยเกษตรศาสตร์ & ตลาดอมรพันธ์
,,,13835-100595,866.0,506.0,355.0,5.0,14,1,7,6,85,5,1,3,1,1,0,14,HIGH,13.835,100.595,2920.1511009566834,True Town BMA 2 - มหาวิทยาลัยเกษตรศาสตร์ & ตลาดอมรพันธ์
,,,13845-100495,2120.0,2057.0,0.0,63.0,22,6,3,13,101,10,6,0,4,3,0,22,HIGH,13.845,100.495,8099.8674022337445,True Town BMA 2 - มหาวิทยาลัยเกษตรศาสตร์ & ตลาดอมรพันธ์
,,,13845-100540,1318.0,1315.0,0.0,3.0,7,2,3,2,89,2,2,0,0,0,0,7,HIGH,13.845,100.54,3239.9469720190714,True Town BMA 2 - มหาวิทยาลัยเกษตรศาสตร์ & ตลาดอมรพันธ์
,,,13845-100545,1827.0,1809.0,0.0,18.0,16,2,1,13,140,4,2,0,2,1,0,16,HIGH,13.845,100.545,2699.9558105553037,True Town BMA 2 - มหาวิทยาลัยเกษตรศาสตร์ & ตลาดอมรพันธ์
BMA I (North West),B022-BKK,True Town BMA 2 - มหาวิทยาลัยเกษตรศาสตร์ & ตลาดอมรพันธ์,13845-100570,4750.0,4517.0,216.0,17.0,21,5,5,11,161,8,5,1,2,0,21,21,HIGH,13.845,100.57,0,True Town BMA 2 - มหาวิทยาลัยเกษตรศาสตร์ & ตลาดอมรพันธ์
,,,13855-100540,2313.0,1152.0,1006.0,155.0,37,2,29,6,151,12,2,9,1,0,0,37,HIGH,13.855,100.54,3425.494463258392,True Town BMA 2 - มหาวิทยาลัยเกษตรศาสตร์ & ตลาดอมรพันธ์
,,,13860-100535,3322.0,2968.0,326.0,28.0,88,5,10,73,122,13,5,5,3,1,0,88,HIGH,13.86,100.535,4131.673647644271,True Town BMA 2 - มหาวิทยาลัยเกษตรศาสตร์ & ตลาดอมรพันธ์
,,,13860-100540,2176.0,1810.0,363.0,3.0,34,3,10,21,148,6,3,3,0,0,0,34,HIGH,13.86,100.54,3644.2140292596837,True Town BMA 2 - มหาวิทยาลัยเกษตรศาสตร์ & ตลาดอมรพันธ์
,,,13860-100640,2811.0,2371.0,413.0,27.0,40,5,6,29,155,13,5,5,3,0,0,40,HIGH,13.86,100.64,7741.560375775307,True Town BMA 2 - มหาวิทยาลัยเกษตรศาสตร์ & ตลาดอมรพันธ์
,,,13865-100615,1908.0,1779.0,95.0,34.0,25,4,1,20,99,8,4,1,3,0,0,25,HIGH,13.865,100.615,5344.681867379503,True Town BMA 2 - มหาวิทยาลัยเกษตรศาสตร์ & ตลาดอมรพันธ์
,,,13870-100495,616.0,0.0,531.0,85.0,142,0,22,120,185,15,0,12,3,1,0,142,HIGH,13.87,100.495,8563.488767848443,True Town BMA 2 - มหาวิทยาลัยเกษตรศาสตร์ & ตลาดอมรพันธ์
,,,13875-100530,894.0,892.0,0.0,2.0,16,2,0,14,89,2,2,0,0,0,0,16,HIGH,13.875,100.53,5458.41070463716,True Town BMA 2 - มหาวิทยาลัยเกษตรศาสตร์ & ตลาดอมรพันธ์
BMA I (North West),B013-NTB,True Town BMA 6 - ตลาด BB Market ,13880-100405,8085.0,7152.0,699.0,234.0,177,6,13,158,141,29,6,5,18,0,177,177,HIGH,13.88,100.405,0,True Town BMA 6 - ตลาด BB Market 
,,,13880-100410,2515.0,0.0,2477.0,38.0,61,0,32,29,237,25,0,22,3,0,0,61,HIGH,13.88,100.41,539.9097650087294,True Town BMA 6 - ตลาด BB Market 
,,,13895-100560,1898.0,1850.0,4.0,44.0,170,3,2,165,96,5,3,0,2,0,0,170,HIGH,13.895,100.56,8240.605925482438,True Town BMA 17 - มหาวิทยาลัยรังสิต
,,,13900-100605,892.0,866.0,25.0,1.0,33,3,2,28,91,4,3,1,0,0,0,33,HIGH,13.9,100.605,7545.458553203103,True Town BMA 17 - มหาวิทยาลัยรังสิต
,,,13905-100525,5287.0,4153.0,1034.0,100.0,96,3,51,42,243,24,3,16,5,1,0,96,HIGH,13.905,100.525,9300.316433750922,True Town BMA 17 - มหาวิทยาลัยรังสิต
,,,13905-100535,2842.0,2835.0,0.0,7.0,15,5,3,7,87,5,5,0,0,1,0,15,HIGH,13.905,100.535,8583.464962724913,True Town BMA 17 - มหาวิทยาลัยรังสิต
,,,13915-100495,2561.0,2550.0,7.0,4.0,18,5,2,11,97,6,5,1,0,1,0,18,HIGH,13.915,100.495,10468.445494901345,True Town BMA 6 - ตลาด BB Market 
,,,13915-100545,1714.0,1439.0,91.0,184.0,421,2,13,406,91,12,2,6,4,0,0,421,HIGH,13.915,100.545,7041.070736849968,True Town BMA 17 - มหาวิทยาลัยรังสิต
,,,13915-100550,3933.0,3365.0,408.0,160.0,84,2,11,71,158,19,2,6,11,0,0,84,HIGH,13.915,100.55,6723.570970334831,True Town BMA 17 - มหาวิทยาลัยรังสิต
,,,13920-100600,5732.0,5731.0,0.0,1.0,7,2,0,5,115,2,2,0,0,0,0,7,HIGH,13.92,100.6,5260.756509935391,True Town BMA 17 - มหาวิทยาลัยรังสิต
,,,13925-100640,2513.0,2466.0,8.0,39.0,21,4,4,13,99,7,4,1,2,2,0,21,HIGH,13.925,100.64,7419.387462466691,True Town BMA 17 - มหาวิทยาลัยรังสิต
BMA III (North East),B034-PTT,True Town BMA 17 - มหาวิทยาลัยรังสิต,13965-100585,3478.0,3196.0,218.0,64.0,60,5,7,48,97,13,5,2,6,0,60,60,HIGH,13.965,100.585,0,True Town BMA 17 - มหาวิทยาลัยรังสิต
,,,13965-100620,2774.0,2345.0,378.0,51.0,149,4,16,129,133,18,4,9,5,0,0,149,HIGH,13.965,100.62,2832.631988120583,True Town BMA 14 - ฟิวเจอร์พาร์ค-ตลาดรังสิต
BMA III (North East),B032-PTT,True Town BMA 14 - ฟิวเจอร์พาร์ค-ตลาดรังสิต,13990-100615,3449.0,410.0,2966.0,73.0,117,1,81,35,332,46,1,42,3,0,117,117,HIGH,13.99,100.615,0,True Town BMA 14 - ฟิวเจอร์พาร์ค-ตลาดรังสิต
R07-West,Kanchanaburi,True Town UPC50 - กาญจนบุรี,14025-099530,2406.0,2378.0,7.0,21.0,43,4,2,37,93,6,4,1,1,2,43,43,HIGH,14.025,99.53,0,True Town UPC50 - กาญจนบุรี
,,,14070-100605,3351.0,3069.0,171.0,111.0,30,3,6,21,180,12,3,4,5,1,0,30,HIGH,14.07,100.605,116104.08646610456,True Town UPC50 - กาญจนบุรี
,,,14705-101410,814.0,318.0,436.0,60.0,99,1,4,94,109,5,1,1,3,0,0,99,HIGH,14.705,101.41,216232.14672572838,True Town UPC50 - กาญจนบุรี
,,,14975-102095,1168.0,1089.0,72.0,7.0,60,3,8,49,141,8,3,4,1,2,0,60,HIGH,14.975,102.095,179960.3201388425,True Town UPC20 - ขอนแก่น
,,,14975-102100,738.0,738.0,0.0,0.0,8,2,0,6,92,2,2,0,0,0,0,8,HIGH,14.975,102.1,179726.83492974358,True Town UPC20 - ขอนแก่น
,,,15000-102115,962.0,678.0,262.0,22.0,39,1,19,19,126,11,1,8,2,0,0,39,HIGH,15.0,102.115,176522.4850976398,True Town UPC20 - ขอนแก่น
R03-NE Upper,Khon Kaen,True Town UPC20 - ขอนแก่น,16430-102830,981.0,973.0,0.0,8.0,14,3,0,11,130,4,3,0,1,0,14,14,HIGH,16.43,102.83,0,True Town UPC20 - ขอนแก่น
,,,16435-102835,660.0,630.0,0.0,30.0,16,1,1,14,110,3,1,0,2,1,0,16,HIGH,16.435,102.835,770.6180245767716,True Town UPC20 - ขอนแก่น
,,,16465-102825,2784.0,2656.0,0.0,128.0,56,4,0,52,188,13,4,0,9,0,0,56,HIGH,16.465,102.825,3929.4146039038224,True Town UPC20 - ขอนแก่น
,,,16485-102815,1033.0,992.0,0.0,41.0,22,1,1,20,196,3,1,0,2,0,0,22,HIGH,16.485,102.815,6323.434326087608,True Town UPC20 - ขอนแก่น
R02-North Lower,Phitsanulok,True Town UPC14 - พิษณุโลก,16755-100195,2917.0,2650.0,0.0,267.0,55,3,0,52,123,20,3,0,17,0,55,55,HIGH,16.755,100.195,0,True Town UPC14 - พิษณุโลก
,,,16815-100260,643.0,640.0,3.0,0.0,38,3,19,16,165,2,2,0,0,0,0,38,HIGH,16.815,100.26,9615.2111286696,True Town UPC14 - พิษณุโลก
,,,17405-102800,836.0,699.0,136.0,1.0,24,2,6,16,87,5,2,3,0,0,0,24,HIGH,17.405,102.8,286251.23441163695,True Town UPC14 - พิษณุโลก
,,,18750-098940,926.0,921.0,0.0,5.0,36,3,0,33,90,3,3,0,0,0,0,36,HIGH,18.75,98.94,5919.051112725116,True Town UPC9 - เชียงใหม่ 1
,,,18775-098995,549.0,547.0,0.0,2.0,19,2,1,16,96,2,2,0,0,0,0,19,HIGH,18.775,98.995,3446.671908658653,True Town UPC9 - เชียงใหม่ 1
,,,18785-098985,1046.0,1045.0,0.0,1.0,26,4,7,15,140,4,4,0,0,0,0,26,HIGH,18.785,98.985,1931.8689308380715,True Town UPC9 - เชียงใหม่ 1
,,,18785-098995,668.0,610.0,58.0,0.0,23,3,5,15,218,5,3,2,0,0,0,23,HIGH,18.785,98.995,2857.8861224948914,True Town UPC9 - เชียงใหม่ 1
,,,18790-098970,1529.0,1466.0,0.0,63.0,23,2,0,21,83,4,2,0,2,0,0,23,HIGH,18.79,98.97,556.1491661483122,True Town UPC9 - เชียงใหม่ 1
,,,18790-098980,802.0,366.0,0.0,436.0,11,2,3,6,97,3,1,0,2,0,0,11,HIGH,18.79,98.98,1190.847536932904,True Town UPC9 - เชียงใหม่ 1
,,,18795-098950,4638.0,3692.0,0.0,946.0,50,3,0,47,127,22,3,0,19,1,0,50,HIGH,18.795,98.95,2105.9753397666727,True Town UPC9 - เชียงใหม่ 1
,,,18795-098955,2290.0,1927.0,0.0,363.0,55,2,9,44,209,17,2,0,15,0,0,55,HIGH,18.795,98.955,1579.4815051891724,True Town UPC9 - เชียงใหม่ 1
R01-North Upper,Chiang Mai 1,True Town UPC9 - เชียงใหม่ 1,18795-098970,608.0,608.0,0.0,0.0,12,1,3,8,93,1,1,0,0,0,12,12,HIGH,18.795,98.97,0,True Town UPC9 - เชียงใหม่ 1
,,,18795-098975,1177.0,1163.0,2.0,12.0,12,3,3,6,97,4,3,0,1,1,0,12,HIGH,18.795,98.975,526.493835201788,True Town UPC9 - เชียงใหม่ 1
,,,18795-098990,970.0,932.0,37.0,1.0,28,5,6,17,248,6,5,1,0,0,0,28,HIGH,18.795,98.99,2105.9753397666727,True Town UPC9 - เชียงใหม่ 1
R01-North Upper,Chiang Mai 1,True Town UPC9 - เชียงใหม่ 1,18800-098965,2274.0,2254.0,2.0,18.0,51,3,19,29,292,5,3,0,2,0,51,51,HIGH,18.8,98.965,0,True Town UPC9 - เชียงใหม่ 1
R01-North Upper,Chiang Mai 1,True Town UPC9 - เชียงใหม่ 1,18800-098970,692.0,501.0,190.0,1.0,15,1,6,8,93,3,1,2,0,0,15,15,HIGH,18.8,98.97,0,True Town UPC9 - เชียงใหม่ 1
,,,18800-099020,1126.0,1011.0,115.0,0.0,19,2,5,12,93,4,2,2,0,0,0,19,HIGH,18.8,99.02,5264.78194912956,True Town UPC9 - เชียงใหม่ 1
,,,18805-098965,993.0,744.0,201.0,48.0,78,2,36,40,237,11,2,7,2,1,0,78,HIGH,18.805,98.965,765.8152201468968,True Town UPC9 - เชียงใหม่ 1
,,,18805-098975,581.0,579.0,0.0,2.0,44,2,2,40,258,2,2,0,0,0,0,44,HIGH,18.805,98.975,765.8152201468968,True Town UPC9 - เชียงใหม่ 1
,,,18805-098980,595.0,564.0,0.0,31.0,49,2,3,44,180,3,2,0,1,1,0,49,HIGH,18.805,98.98,1190.792223855228,True Town UPC9 - เชียงใหม่ 1
,,,18805-098985,1403.0,1392.0,0.0,11.0,34,4,1,29,140,5,4,0,1,2,0,34,HIGH,18.805,98.985,1674.4674978349308,True Town UPC9 - เชียงใหม่ 1
,,,18810-098955,1509.0,1447.0,0.0,62.0,82,2,2,78,217,6,2,0,4,0,0,82,HIGH,18.81,98.955,1931.7538553162287,True Town UPC9 - เชียงใหม่ 1
,,,18810-099015,1365.0,348.0,1011.0,6.0,54,1,39,14,194,17,1,15,1,0,0,54,HIGH,18.81,99.015,4866.969885970708,True Town UPC9 - เชียงใหม่ 1
,,,19905-099830,655.0,626.0,4.0,25.0,18,2,2,14,97,3,2,0,1,0,0,18,HIGH,19.905,99.83,16800.355779677648,True Town UPC4 - เชียงราย
,,,19910-099825,1005.0,965.0,1.0,39.0,41,1,2,38,111,4,1,0,3,0,0,41,HIGH,19.91,99.825,16425.944363316557,True Town UPC4 - เชียงราย
,,,19910-099830,552.0,330.0,0.0,222.0,75,1,1,73,143,10,1,0,9,1,0,75,HIGH,19.91,99.83,16267.176933171097,True Town UPC4 - เชียงราย
R01-North Upper,Chiang Rai,True Town UPC4 - เชียงราย,20050-099875,4160.0,3287.0,499.0,374.0,104,2,3,99,90,33,2,2,29,0,104,104,HIGH,20.05,99.875,0,True Town UPC4 - เชียงราย
